[
{ "_id" : { "$oid" : "5b37129558c7d83fd43322b2" }, "id" : 1, "word" : "_", "value" : 0, "mapping" : [  ], "updateTime" : { "$date" : "2018-06-30T05:18:13.145+0000" } },
{ "_id" : { "$oid" : "5b37129558c7d83fd43322b3" }, "id" : 2, "word" : "unk", "value" : 1, "mapping" : [  ], "updateTime" : { "$date" : "2018-06-30T05:18:13.145+0000" } },
{ "_id" : { "$oid" : "5b37129558c7d83fd43322b4" }, "id" : 3, "word" : "", "value" : 2, "mapping" : [  ], "updateTime" : { "$date" : "2018-06-30T05:18:13.145+0000" } },
{ "_id" : { "$oid" : "5b37129558c7d83fd43322b5" }, "id" : 4, "word" : "ngành", "value" : 69, "mapping" : [  ], "updateTime" : { "$date" : "2018-06-30T05:18:13.145+0000" } },
{ "_id" : { "$oid" : "5b37129558c7d83fd43322b6" }, "id" : 5, "word" : "tin", "value" : 4, "mapping" : [  ], "updateTime" : { "$date" : "2018-06-30T05:18:13.145+0000" } },
{ "_id" : { "$oid" : "5b37129558c7d83fd43322b7" }, "id" : 6, "word" : "Có", "value" : 5, "mapping" : [  ], "updateTime" : { "$date" : "2018-06-30T05:18:13.145+0000" } },
{ "_id" : { "$oid" : "5b37129558c7d83fd43322b8" }, "id" : 7, "word" : "và", "value" : 6, "mapping" : [  ], "updateTime" : { "$date" : "2018-06-30T05:18:13.145+0000" } },
{ "_id" : { "$oid" : "5b37129558c7d83fd43322b9" }, "id" : 8, "word" : "các", "value" : 67, "mapping" : [  ], "updateTime" : { "$date" : "2018-06-30T05:18:13.145+0000" } },
{ "_id" : { "$oid" : "5b37129558c7d83fd43322ba" }, "id" : 9, "word" : "có", "value" : 5, "mapping" : [  ], "updateTime" : { "$date" : "2018-06-30T05:18:13.145+0000" } },
{ "_id" : { "$oid" : "5b37129558c7d83fd43322bb" }, "id" : 10, "word" : "Công_nghệ_thông", "value" : 9, "mapping" : [  ], "updateTime" : { "$date" : "2018-06-30T05:18:13.145+0000" } },
{ "_id" : { "$oid" : "5b37129558c7d83fd43322bc" }, "id" : 11, "word" : "điểm", "value" : 43, "mapping" : [  ], "updateTime" : { "$date" : "2018-06-30T05:18:13.145+0000" } },
{ "_id" : { "$oid" : "5b37129558c7d83fd43322bd" }, "id" : 12, "word" : "giải", "value" : 11, "mapping" : [  ], "updateTime" : { "$date" : "2018-06-30T05:18:13.145+0000" } },
{ "_id" : { "$oid" : "5b37129558c7d83fd43322be" }, "id" : 13, "word" : "học", "value" : 52, "mapping" : [  ], "updateTime" : { "$date" : "2018-06-30T05:18:13.145+0000" } },
{ "_id" : { "$oid" : "5b37129558c7d83fd43322bf" }, "id" : 14, "word" : "là", "value" : 13, "mapping" : [  ], "updateTime" : { "$date" : "2018-06-30T05:18:13.145+0000" } },
{ "_id" : { "$oid" : "5b37129558c7d83fd43322c0" }, "id" : 15, "word" : "pháp", "value" : 14, "mapping" : [  ], "updateTime" : { "$date" : "2018-06-30T05:18:13.145+0000" } },
{ "_id" : { "$oid" : "5b37129558c7d83fd43322c1" }, "id" : 16, "word" : "CNTT", "value" : 15, "mapping" : [  ], "updateTime" : { "$date" : "2018-06-30T05:18:13.145+0000" } },
{ "_id" : { "$oid" : "5b37129558c7d83fd43322c2" }, "id" : 17, "word" : "bao", "value" : 16, "mapping" : [  ], "updateTime" : { "$date" : "2018-06-30T05:18:13.145+0000" } },
{ "_id" : { "$oid" : "5b37129558c7d83fd43322c3" }, "id" : 18, "word" : "nhiêu", "value" : 17, "mapping" : [  ], "updateTime" : { "$date" : "2018-06-30T05:18:13.145+0000" } },
{ "_id" : { "$oid" : "5b37129558c7d83fd43322c4" }, "id" : 19, "word" : "làm", "value" : 18, "mapping" : [  ], "updateTime" : { "$date" : "2018-06-30T05:18:13.145+0000" } },
{ "_id" : { "$oid" : "5b37129558c7d83fd43322c5" }, "id" : 20, "word" : "kỹ", "value" : 210, "mapping" : [  ], "updateTime" : { "$date" : "2018-06-30T05:18:13.145+0000" } },
{ "_id" : { "$oid" : "5b37129558c7d83fd43322c6" }, "id" : 21, "word" : "kiến", "value" : 20, "mapping" : [  ], "updateTime" : { "$date" : "2018-06-30T05:18:13.145+0000" } },
{ "_id" : { "$oid" : "5b37129558c7d83fd43322c7" }, "id" : 22, "word" : "chuyên", "value" : 243, "mapping" : [  ], "updateTime" : { "$date" : "2018-06-30T05:18:13.145+0000" } },
{ "_id" : { "$oid" : "5b37129558c7d83fd43322c8" }, "id" : 23, "word" : "Năm", "value" : 22, "mapping" : [  ], "updateTime" : { "$date" : "2018-06-30T05:18:13.145+0000" } },
{ "_id" : { "$oid" : "5b37129558c7d83fd43322c9" }, "id" : 24, "word" : "công", "value" : 23, "mapping" : [  ], "updateTime" : { "$date" : "2018-06-30T05:18:13.145+0000" } },
{ "_id" : { "$oid" : "5b37129558c7d83fd43322ca" }, "id" : 25, "word" : "2017", "value" : 24, "mapping" : [  ], "updateTime" : { "$date" : "2018-06-30T05:18:13.145+0000" } },
{ "_id" : { "$oid" : "5b37129558c7d83fd43322cb" }, "id" : 26, "word" : "năm", "value" : 22, "mapping" : [  ], "updateTime" : { "$date" : "2018-06-30T05:18:13.145+0000" } },
{ "_id" : { "$oid" : "5b37129558c7d83fd43322cc" }, "id" : 27, "word" : "việc", "value" : 241, "mapping" : [  ], "updateTime" : { "$date" : "2018-06-30T05:18:13.145+0000" } },
{ "_id" : { "$oid" : "5b37129558c7d83fd43322cd" }, "id" : 28, "word" : "đề", "value" : 27, "mapping" : [  ], "updateTime" : { "$date" : "2018-06-30T05:18:13.145+0000" } },
{ "_id" : { "$oid" : "5b37129558c7d83fd43322ce" }, "id" : 29, "word" : "khoa", "value" : 168, "mapping" : [  ], "updateTime" : { "$date" : "2018-06-30T05:18:13.145+0000" } },
{ "_id" : { "$oid" : "5b37129558c7d83fd43322cf" }, "id" : 30, "word" : "môn", "value" : 246, "mapping" : [  ], "updateTime" : { "$date" : "2018-06-30T05:18:13.145+0000" } },
{ "_id" : { "$oid" : "5b37129558c7d83fd43322d0" }, "id" : 31, "word" : "phần", "value" : 30, "mapping" : [  ], "updateTime" : { "$date" : "2018-06-30T05:18:13.145+0000" } },
{ "_id" : { "$oid" : "5b37129558c7d83fd43322d1" }, "id" : 32, "word" : "mềm", "value" : 31, "mapping" : [  ], "updateTime" : { "$date" : "2018-06-30T05:18:13.145+0000" } },
{ "_id" : { "$oid" : "5b37129558c7d83fd43322d2" }, "id" : 33, "word" : "hệ", "value" : 68, "mapping" : [  ], "updateTime" : { "$date" : "2018-06-30T05:18:13.145+0000" } },
{ "_id" : { "$oid" : "5b37129558c7d83fd43322d3" }, "id" : 34, "word" : "để", "value" : 33, "mapping" : [  ], "updateTime" : { "$date" : "2018-06-30T05:18:13.145+0000" } },
{ "_id" : { "$oid" : "5b37129558c7d83fd43322d4" }, "id" : 35, "word" : "năng", "value" : 34, "mapping" : [  ], "updateTime" : { "$date" : "2018-06-30T05:18:13.145+0000" } },
{ "_id" : { "$oid" : "5b37129558c7d83fd43322d5" }, "id" : 36, "word" : "đại", "value" : 35, "mapping" : [  ], "updateTime" : { "$date" : "2018-06-30T05:18:13.145+0000" } },
{ "_id" : { "$oid" : "5b37129558c7d83fd43322d6" }, "id" : 37, "word" : "gì", "value" : 36, "mapping" : [  ], "updateTime" : { "$date" : "2018-06-30T05:18:13.145+0000" } },
{ "_id" : { "$oid" : "5b37129558c7d83fd43322d7" }, "id" : 38, "word" : "thức", "value" : 37, "mapping" : [  ], "updateTime" : { "$date" : "2018-06-30T05:18:13.145+0000" } },
{ "_id" : { "$oid" : "5b37129558c7d83fd43322d8" }, "id" : 39, "word" : "2016", "value" : 38, "mapping" : [  ], "updateTime" : { "$date" : "2018-06-30T05:18:13.145+0000" } },
{ "_id" : { "$oid" : "5b37129558c7d83fd43322d9" }, "id" : 40, "word" : "phòng", "value" : 39, "mapping" : [  ], "updateTime" : { "$date" : "2018-06-30T05:18:13.145+0000" } },
{ "_id" : { "$oid" : "5b37129558c7d83fd43322da" }, "id" : 41, "word" : "tính", "value" : 40, "mapping" : [  ], "updateTime" : { "$date" : "2018-06-30T05:18:13.145+0000" } },
{ "_id" : { "$oid" : "5b37129558c7d83fd43322db" }, "id" : 42, "word" : "25", "value" : 41, "mapping" : [  ], "updateTime" : { "$date" : "2018-06-30T05:18:13.145+0000" } },
{ "_id" : { "$oid" : "5b37129558c7d83fd43322dc" }, "id" : 43, "word" : "phạm", "value" : 42, "mapping" : [  ], "updateTime" : { "$date" : "2018-06-30T05:18:13.145+0000" } },
{ "_id" : { "$oid" : "5b37129558c7d83fd43322dd" }, "id" : 44, "word" : "Điểm", "value" : 43, "mapping" : [  ], "updateTime" : { "$date" : "2018-06-30T05:18:13.145+0000" } },
{ "_id" : { "$oid" : "5b37129558c7d83fd43322de" }, "id" : 45, "word" : "vào", "value" : 44, "mapping" : [  ], "updateTime" : { "$date" : "2018-06-30T05:18:13.145+0000" } },
{ "_id" : { "$oid" : "5b37129558c7d83fd43322df" }, "id" : 46, "word" : "thực", "value" : 45, "mapping" : [  ], "updateTime" : { "$date" : "2018-06-30T05:18:13.145+0000" } },
{ "_id" : { "$oid" : "5b37129558c7d83fd43322e0" }, "id" : 47, "word" : "hiện", "value" : 46, "mapping" : [  ], "updateTime" : { "$date" : "2018-06-30T05:18:13.145+0000" } },
{ "_id" : { "$oid" : "5b37129558c7d83fd43322e1" }, "id" : 48, "word" : "ty", "value" : 47, "mapping" : [  ], "updateTime" : { "$date" : "2018-06-30T05:18:13.145+0000" } },
{ "_id" : { "$oid" : "5b37129558c7d83fd43322e2" }, "id" : 49, "word" : "cung", "value" : 48, "mapping" : [  ], "updateTime" : { "$date" : "2018-06-30T05:18:13.145+0000" } },
{ "_id" : { "$oid" : "5b37129558c7d83fd43322e3" }, "id" : 50, "word" : "cấp", "value" : 49, "mapping" : [  ], "updateTime" : { "$date" : "2018-06-30T05:18:13.145+0000" } },
{ "_id" : { "$oid" : "5b37129558c7d83fd43322e4" }, "id" : 51, "word" : "nào", "value" : 50, "mapping" : [  ], "updateTime" : { "$date" : "2018-06-30T05:18:13.145+0000" } },
{ "_id" : { "$oid" : "5b37129558c7d83fd43322e5" }, "id" : 52, "word" : "sư", "value" : 57, "mapping" : [  ], "updateTime" : { "$date" : "2018-06-30T05:18:13.145+0000" } },
{ "_id" : { "$oid" : "5b37129558c7d83fd43322e6" }, "id" : 53, "word" : "Học", "value" : 52, "mapping" : [  ], "updateTime" : { "$date" : "2018-06-30T05:18:13.145+0000" } },
{ "_id" : { "$oid" : "5b37129558c7d83fd43322e7" }, "id" : 54, "word" : "sẽ", "value" : 53, "mapping" : [  ], "updateTime" : { "$date" : "2018-06-30T05:18:13.145+0000" } },
{ "_id" : { "$oid" : "5b37129558c7d83fd43322e8" }, "id" : 55, "word" : "SPKT", "value" : 54, "mapping" : [  ], "updateTime" : { "$date" : "2018-06-30T05:18:13.145+0000" } },
{ "_id" : { "$oid" : "5b37129558c7d83fd43322e9" }, "id" : 56, "word" : "thống", "value" : 55, "mapping" : [  ], "updateTime" : { "$date" : "2018-06-30T05:18:13.145+0000" } },
{ "_id" : { "$oid" : "5b37129558c7d83fd43322ea" }, "id" : 57, "word" : "thông", "value" : 56, "mapping" : [  ], "updateTime" : { "$date" : "2018-06-30T05:18:13.145+0000" } },
{ "_id" : { "$oid" : "5b37129558c7d83fd43322eb" }, "id" : 58, "word" : "Sư", "value" : 57, "mapping" : [  ], "updateTime" : { "$date" : "2018-06-30T05:18:13.145+0000" } },
{ "_id" : { "$oid" : "5b37129558c7d83fd43322ec" }, "id" : 59, "word" : "Cơ_sở", "value" : 58, "mapping" : [  ], "updateTime" : { "$date" : "2018-06-30T05:18:13.145+0000" } },
{ "_id" : { "$oid" : "5b37129558c7d83fd43322ed" }, "id" : 60, "word" : "được", "value" : 59, "mapping" : [  ], "updateTime" : { "$date" : "2018-06-30T05:18:13.145+0000" } },
{ "_id" : { "$oid" : "5b37129558c7d83fd43322ee" }, "id" : 61, "word" : "trong", "value" : 60, "mapping" : [  ], "updateTime" : { "$date" : "2018-06-30T05:18:13.145+0000" } },
{ "_id" : { "$oid" : "5b37129558c7d83fd43322ef" }, "id" : 62, "word" : "trà", "value" : 61, "mapping" : [  ], "updateTime" : { "$date" : "2018-06-30T05:18:13.145+0000" } },
{ "_id" : { "$oid" : "5b37129558c7d83fd43322f0" }, "id" : 63, "word" : "những", "value" : 193, "mapping" : [  ], "updateTime" : { "$date" : "2018-06-30T05:18:13.145+0000" } },
{ "_id" : { "$oid" : "5b37129558c7d83fd43322f1" }, "id" : 64, "word" : "Công_nghệ", "value" : 63, "mapping" : [  ], "updateTime" : { "$date" : "2018-06-30T05:18:13.145+0000" } },
{ "_id" : { "$oid" : "5b37129558c7d83fd43322f2" }, "id" : 65, "word" : "Mạng_máy", "value" : 64, "mapping" : [  ], "updateTime" : { "$date" : "2018-06-30T05:18:13.145+0000" } },
{ "_id" : { "$oid" : "5b37129558c7d83fd43322f3" }, "id" : 66, "word" : "dữ", "value" : 65, "mapping" : [  ], "updateTime" : { "$date" : "2018-06-30T05:18:13.145+0000" } },
{ "_id" : { "$oid" : "5b37129558c7d83fd43322f4" }, "id" : 67, "word" : "liệu", "value" : 66, "mapping" : [  ], "updateTime" : { "$date" : "2018-06-30T05:18:13.145+0000" } },
{ "_id" : { "$oid" : "5b37129558c7d83fd43322f5" }, "id" : 68, "word" : "Các", "value" : 67, "mapping" : [  ], "updateTime" : { "$date" : "2018-06-30T05:18:13.145+0000" } },
{ "_id" : { "$oid" : "5b37129558c7d83fd43322f6" }, "id" : 69, "word" : "Hệ", "value" : 68, "mapping" : [  ], "updateTime" : { "$date" : "2018-06-30T05:18:13.145+0000" } },
{ "_id" : { "$oid" : "5b37129558c7d83fd43322f7" }, "id" : 70, "word" : "Ngành", "value" : 69, "mapping" : [  ], "updateTime" : { "$date" : "2018-06-30T05:18:13.145+0000" } },
{ "_id" : { "$oid" : "5b37129558c7d83fd43322f8" }, "id" : 71, "word" : "3", "value" : 70, "mapping" : [  ], "updateTime" : { "$date" : "2018-06-30T05:18:13.145+0000" } },
{ "_id" : { "$oid" : "5b37129558c7d83fd43322f9" }, "id" : 72, "word" : "đầu", "value" : 71, "mapping" : [  ], "updateTime" : { "$date" : "2018-06-30T05:18:13.145+0000" } },
{ "_id" : { "$oid" : "5b37129558c7d83fd43322fa" }, "id" : 73, "word" : "thức_chuyên", "value" : 72, "mapping" : [  ], "updateTime" : { "$date" : "2018-06-30T05:18:13.145+0000" } },
{ "_id" : { "$oid" : "5b37129558c7d83fd43322fb" }, "id" : 74, "word" : "vững", "value" : 73, "mapping" : [  ], "updateTime" : { "$date" : "2018-06-30T05:18:13.145+0000" } },
{ "_id" : { "$oid" : "5b37129558c7d83fd43322fc" }, "id" : 75, "word" : "chắc", "value" : 74, "mapping" : [  ], "updateTime" : { "$date" : "2018-06-30T05:18:13.145+0000" } },
{ "_id" : { "$oid" : "5b37129558c7d83fd43322fd" }, "id" : 76, "word" : "khả_năng", "value" : 75, "mapping" : [  ], "updateTime" : { "$date" : "2018-06-30T05:18:13.145+0000" } },
{ "_id" : { "$oid" : "5b37129558c7d83fd43322fe" }, "id" : 77, "word" : "phân_tích", "value" : 76, "mapping" : [  ], "updateTime" : { "$date" : "2018-06-30T05:18:13.145+0000" } },
{ "_id" : { "$oid" : "5b37129558c7d83fd43322ff" }, "id" : 78, "word" : "xuất", "value" : 77, "mapping" : [  ], "updateTime" : { "$date" : "2018-06-30T05:18:13.145+0000" } },
{ "_id" : { "$oid" : "5b37129558c7d83fd4332300" }, "id" : 79, "word" : "quyết", "value" : 78, "mapping" : [  ], "updateTime" : { "$date" : "2018-06-30T05:18:13.145+0000" } },
{ "_id" : { "$oid" : "5b37129558c7d83fd4332301" }, "id" : 80, "word" : "vấn", "value" : 79, "mapping" : [  ], "updateTime" : { "$date" : "2018-06-30T05:18:13.145+0000" } },
{ "_id" : { "$oid" : "5b37129558c7d83fd4332302" }, "id" : 81, "word" : "nghệ_thông", "value" : 80, "mapping" : [  ], "updateTime" : { "$date" : "2018-06-30T05:18:13.145+0000" } },
{ "_id" : { "$oid" : "5b37129558c7d83fd4332303" }, "id" : 82, "word" : "ở", "value" : 81, "mapping" : [  ], "updateTime" : { "$date" : "2018-06-30T05:18:13.145+0000" } },
{ "_id" : { "$oid" : "5b37129558c7d83fd4332304" }, "id" : 83, "word" : "Đại_học", "value" : 82, "mapping" : [  ], "updateTime" : { "$date" : "2018-06-30T05:18:13.145+0000" } },
{ "_id" : { "$oid" : "5b37129558c7d83fd4332305" }, "id" : 84, "word" : "trường", "value" : 135, "mapping" : [  ], "updateTime" : { "$date" : "2018-06-30T05:18:13.145+0000" } },
{ "_id" : { "$oid" : "5b37129558c7d83fd4332306" }, "id" : 85, "word" : "sâu", "value" : 84, "mapping" : [  ], "updateTime" : { "$date" : "2018-06-30T05:18:13.145+0000" } },
{ "_id" : { "$oid" : "5b37129558c7d83fd4332307" }, "id" : 86, "word" : "khác", "value" : 85, "mapping" : [  ], "updateTime" : { "$date" : "2018-06-30T05:18:13.145+0000" } },
{ "_id" : { "$oid" : "5b37129558c7d83fd4332308" }, "id" : 87, "word" : "cần_thiết", "value" : 86, "mapping" : [  ], "updateTime" : { "$date" : "2018-06-30T05:18:13.145+0000" } },
{ "_id" : { "$oid" : "5b37129558c7d83fd4332309" }, "id" : 88, "word" : "cho", "value" : 87, "mapping" : [  ], "updateTime" : { "$date" : "2018-06-30T05:18:13.145+0000" } },
{ "_id" : { "$oid" : "5b37129558c7d83fd433230a" }, "id" : 89, "word" : "người", "value" : 88, "mapping" : [  ], "updateTime" : { "$date" : "2018-06-30T05:18:13.145+0000" } },
{ "_id" : { "$oid" : "5b37129558c7d83fd433230b" }, "id" : 90, "word" : "225", "value" : 89, "mapping" : [  ], "updateTime" : { "$date" : "2018-06-30T05:18:13.145+0000" } },
{ "_id" : { "$oid" : "5b37129558c7d83fd433230c" }, "id" : 91, "word" : "Số", "value" : 90, "mapping" : [  ], "updateTime" : { "$date" : "2018-06-30T05:18:13.145+0000" } },
{ "_id" : { "$oid" : "5b37129558c7d83fd433230d" }, "id" : 92, "word" : "đâu", "value" : 91, "mapping" : [  ], "updateTime" : { "$date" : "2018-06-30T05:18:13.145+0000" } },
{ "_id" : { "$oid" : "5b37129558c7d83fd433230e" }, "id" : 93, "word" : "thể", "value" : 92, "mapping" : [  ], "updateTime" : { "$date" : "2018-06-30T05:18:13.146+0000" } },
{ "_id" : { "$oid" : "5b37129558c7d83fd433230f" }, "id" : 94, "word" : "công_ty", "value" : 93, "mapping" : [  ], "updateTime" : { "$date" : "2018-06-30T05:18:13.146+0000" } },
{ "_id" : { "$oid" : "5b37129558c7d83fd4332310" }, "id" : 95, "word" : "mạng", "value" : 94, "mapping" : [  ], "updateTime" : { "$date" : "2018-06-30T05:18:13.146+0000" } },
{ "_id" : { "$oid" : "5b37129558c7d83fd4332311" }, "id" : 96, "word" : "nước", "value" : 95, "mapping" : [  ], "updateTime" : { "$date" : "2018-06-30T05:18:13.146+0000" } },
{ "_id" : { "$oid" : "5b37129558c7d83fd4332312" }, "id" : 97, "word" : "cũng", "value" : 96, "mapping" : [  ], "updateTime" : { "$date" : "2018-06-30T05:18:13.146+0000" } },
{ "_id" : { "$oid" : "5b37129558c7d83fd4332313" }, "id" : 98, "word" : "như", "value" : 97, "mapping" : [  ], "updateTime" : { "$date" : "2018-06-30T05:18:13.146+0000" } },
{ "_id" : { "$oid" : "5b37129558c7d83fd4332314" }, "id" : 99, "word" : "quốc_tế", "value" : 98, "mapping" : [  ], "updateTime" : { "$date" : "2018-06-30T05:18:13.146+0000" } },
{ "_id" : { "$oid" : "5b37129558c7d83fd4332315" }, "id" : 100, "word" : "vv", "value" : 99, "mapping" : [  ], "updateTime" : { "$date" : "2018-06-30T05:18:13.146+0000" } },
{ "_id" : { "$oid" : "5b37129558c7d83fd4332316" }, "id" : 101, "word" : "…", "value" : 100, "mapping" : [  ], "updateTime" : { "$date" : "2018-06-30T05:18:13.146+0000" } },
{ "_id" : { "$oid" : "5b37129558c7d83fd4332317" }, "id" : 102, "word" : "viện", "value" : 101, "mapping" : [  ], "updateTime" : { "$date" : "2018-06-30T05:18:13.146+0000" } },
{ "_id" : { "$oid" : "5b37129558c7d83fd4332318" }, "id" : 103, "word" : "Thành", "value" : 102, "mapping" : [  ], "updateTime" : { "$date" : "2018-06-30T05:18:13.146+0000" } },
{ "_id" : { "$oid" : "5b37129558c7d83fd4332319" }, "id" : 104, "word" : "phố", "value" : 103, "mapping" : [  ], "updateTime" : { "$date" : "2018-06-30T05:18:13.146+0000" } },
{ "_id" : { "$oid" : "5b37129558c7d83fd433231a" }, "id" : 105, "word" : "hơn", "value" : 104, "mapping" : [  ], "updateTime" : { "$date" : "2018-06-30T05:18:13.146+0000" } },
{ "_id" : { "$oid" : "5b37129558c7d83fd433231b" }, "id" : 106, "word" : "95", "value" : 105, "mapping" : [  ], "updateTime" : { "$date" : "2018-06-30T05:18:13.146+0000" } },
{ "_id" : { "$oid" : "5b37129558c7d83fd433231c" }, "id" : 107, "word" : "%", "value" : 106, "mapping" : [  ], "updateTime" : { "$date" : "2018-06-30T05:18:13.146+0000" } },
{ "_id" : { "$oid" : "5b37129558c7d83fd433231d" }, "id" : 108, "word" : "đậu", "value" : 107, "mapping" : [  ], "updateTime" : { "$date" : "2018-06-30T05:18:13.146+0000" } },
{ "_id" : { "$oid" : "5b37129558c7d83fd433231e" }, "id" : 109, "word" : "Khối", "value" : 108, "mapping" : [  ], "updateTime" : { "$date" : "2018-06-30T05:18:13.146+0000" } },
{ "_id" : { "$oid" : "5b37129558c7d83fd433231f" }, "id" : 110, "word" : "A", "value" : 109, "mapping" : [  ], "updateTime" : { "$date" : "2018-06-30T05:18:13.146+0000" } },
{ "_id" : { "$oid" : "5b37129558c7d83fd4332320" }, "id" : 111, "word" : "01", "value" : 110, "mapping" : [  ], "updateTime" : { "$date" : "2018-06-30T05:18:13.146+0000" } },
{ "_id" : { "$oid" : "5b37129558c7d83fd4332321" }, "id" : 112, "word" : "Võ_Văn_Ngân", "value" : 111, "mapping" : [  ], "updateTime" : { "$date" : "2018-06-30T05:18:13.146+0000" } },
{ "_id" : { "$oid" : "5b37129558c7d83fd4332322" }, "id" : 113, "word" : "Phường", "value" : 112, "mapping" : [  ], "updateTime" : { "$date" : "2018-06-30T05:18:13.146+0000" } },
{ "_id" : { "$oid" : "5b37129558c7d83fd4332323" }, "id" : 114, "word" : "Linh_Chiểu", "value" : 113, "mapping" : [  ], "updateTime" : { "$date" : "2018-06-30T05:18:13.146+0000" } },
{ "_id" : { "$oid" : "5b37129558c7d83fd4332324" }, "id" : 115, "word" : "Quận", "value" : 114, "mapping" : [  ], "updateTime" : { "$date" : "2018-06-30T05:18:13.146+0000" } },
{ "_id" : { "$oid" : "5b37129558c7d83fd4332325" }, "id" : 116, "word" : "Thủ_Đức", "value" : 115, "mapping" : [  ], "updateTime" : { "$date" : "2018-06-30T05:18:13.146+0000" } },
{ "_id" : { "$oid" : "5b37129558c7d83fd4332326" }, "id" : 117, "word" : "Hồ_Chí_Minh", "value" : 116, "mapping" : [  ], "updateTime" : { "$date" : "2018-06-30T05:18:13.146+0000" } },
{ "_id" : { "$oid" : "5b37129558c7d83fd4332327" }, "id" : 118, "word" : "13", "value" : 117, "mapping" : [  ], "updateTime" : { "$date" : "2018-06-30T05:18:13.146+0000" } },
{ "_id" : { "$oid" : "5b37129558c7d83fd4332328" }, "id" : 119, "word" : "1", "value" : 118, "mapping" : [  ], "updateTime" : { "$date" : "2018-06-30T05:18:13.146+0000" } },
{ "_id" : { "$oid" : "5b37129558c7d83fd4332329" }, "id" : 120, "word" : "giao", "value" : 119, "mapping" : [  ], "updateTime" : { "$date" : "2018-06-30T05:18:13.146+0000" } },
{ "_id" : { "$oid" : "5b37129558c7d83fd433232a" }, "id" : 121, "word" : "tiếp", "value" : 120, "mapping" : [  ], "updateTime" : { "$date" : "2018-06-30T05:18:13.146+0000" } },
{ "_id" : { "$oid" : "5b37129558c7d83fd433232b" }, "id" : 122, "word" : "nhóm", "value" : 121, "mapping" : [  ], "updateTime" : { "$date" : "2018-06-30T05:18:13.146+0000" } },
{ "_id" : { "$oid" : "5b37129558c7d83fd433232c" }, "id" : 123, "word" : "hiệu", "value" : 122, "mapping" : [  ], "updateTime" : { "$date" : "2018-06-30T05:18:13.146+0000" } },
{ "_id" : { "$oid" : "5b37129558c7d83fd433232d" }, "id" : 124, "word" : "quả", "value" : 123, "mapping" : [  ], "updateTime" : { "$date" : "2018-06-30T05:18:13.146+0000" } },
{ "_id" : { "$oid" : "5b37129558c7d83fd433232e" }, "id" : 125, "word" : "đầy", "value" : 124, "mapping" : [  ], "updateTime" : { "$date" : "2018-06-30T05:18:13.146+0000" } },
{ "_id" : { "$oid" : "5b37129558c7d83fd433232f" }, "id" : 126, "word" : "đủ", "value" : 125, "mapping" : [  ], "updateTime" : { "$date" : "2018-06-30T05:18:13.146+0000" } },
{ "_id" : { "$oid" : "5b37129558c7d83fd4332330" }, "id" : 127, "word" : "nghiên", "value" : 126, "mapping" : [  ], "updateTime" : { "$date" : "2018-06-30T05:18:13.146+0000" } },
{ "_id" : { "$oid" : "5b37129558c7d83fd4332331" }, "id" : 128, "word" : "cứu", "value" : 127, "mapping" : [  ], "updateTime" : { "$date" : "2018-06-30T05:18:13.146+0000" } },
{ "_id" : { "$oid" : "5b37129558c7d83fd4332332" }, "id" : 129, "word" : "học_tập", "value" : 128, "mapping" : [  ], "updateTime" : { "$date" : "2018-06-30T05:18:13.146+0000" } },
{ "_id" : { "$oid" : "5b37129558c7d83fd4332333" }, "id" : 130, "word" : "suốt", "value" : 129, "mapping" : [  ], "updateTime" : { "$date" : "2018-06-30T05:18:13.146+0000" } },
{ "_id" : { "$oid" : "5b37129558c7d83fd4332334" }, "id" : 131, "word" : "đời", "value" : 130, "mapping" : [  ], "updateTime" : { "$date" : "2018-06-30T05:18:13.146+0000" } },
{ "_id" : { "$oid" : "5b37129558c7d83fd4332335" }, "id" : 132, "word" : "ra", "value" : 131, "mapping" : [  ], "updateTime" : { "$date" : "2018-06-30T05:18:13.146+0000" } },
{ "_id" : { "$oid" : "5b37129558c7d83fd4332336" }, "id" : 133, "word" : "trình", "value" : 132, "mapping" : [  ], "updateTime" : { "$date" : "2018-06-30T05:18:13.146+0000" } },
{ "_id" : { "$oid" : "5b37129558c7d83fd4332337" }, "id" : 134, "word" : "35", "value" : 133, "mapping" : [  ], "updateTime" : { "$date" : "2018-06-30T05:18:13.146+0000" } },
{ "_id" : { "$oid" : "5b37129558c7d83fd4332338" }, "id" : 135, "word" : "vật_chất", "value" : 134, "mapping" : [  ], "updateTime" : { "$date" : "2018-06-30T05:18:13.146+0000" } },
{ "_id" : { "$oid" : "5b37129558c7d83fd4332339" }, "id" : 136, "word" : "Trường", "value" : 135, "mapping" : [  ], "updateTime" : { "$date" : "2018-06-30T05:18:13.146+0000" } },
{ "_id" : { "$oid" : "5b37129558c7d83fd433233a" }, "id" : 137, "word" : "tạo", "value" : 136, "mapping" : [  ], "updateTime" : { "$date" : "2018-06-30T05:18:13.146+0000" } },
{ "_id" : { "$oid" : "5b37129558c7d83fd433233b" }, "id" : 138, "word" : "Sinh_viên", "value" : 137, "mapping" : [  ], "updateTime" : { "$date" : "2018-06-30T05:18:13.146+0000" } },
{ "_id" : { "$oid" : "5b37129558c7d83fd433233c" }, "id" : 139, "word" : "thi", "value" : 138, "mapping" : [  ], "updateTime" : { "$date" : "2018-06-30T05:18:13.146+0000" } },
{ "_id" : { "$oid" : "5b37129558c7d83fd433233d" }, "id" : 140, "word" : "Mã", "value" : 139, "mapping" : [  ], "updateTime" : { "$date" : "2018-06-30T05:18:13.146+0000" } },
{ "_id" : { "$oid" : "5b37129558c7d83fd433233e" }, "id" : 141, "word" : "Gần", "value" : 140, "mapping" : [  ], "updateTime" : { "$date" : "2018-06-30T05:18:13.146+0000" } },
{ "_id" : { "$oid" : "5b37129558c7d83fd433233f" }, "id" : 142, "word" : "200", "value" : 141, "mapping" : [  ], "updateTime" : { "$date" : "2018-06-30T05:18:13.146+0000" } },
{ "_id" : { "$oid" : "5b37129558c7d83fd4332340" }, "id" : 143, "word" : "lý_thuyết", "value" : 142, "mapping" : [  ], "updateTime" : { "$date" : "2018-06-30T05:18:13.146+0000" } },
{ "_id" : { "$oid" : "5b37129558c7d83fd4332341" }, "id" : 144, "word" : "60", "value" : 143, "mapping" : [  ], "updateTime" : { "$date" : "2018-06-30T05:18:13.146+0000" } },
{ "_id" : { "$oid" : "5b37129558c7d83fd4332342" }, "id" : 145, "word" : "dùng", "value" : 144, "mapping" : [  ], "updateTime" : { "$date" : "2018-06-30T05:18:13.146+0000" } },
{ "_id" : { "$oid" : "5b37129558c7d83fd4332343" }, "id" : 146, "word" : "16", "value" : 145, "mapping" : [  ], "updateTime" : { "$date" : "2018-06-30T05:18:13.146+0000" } },
{ "_id" : { "$oid" : "5b37129558c7d83fd4332344" }, "id" : 147, "word" : "máy", "value" : 146, "mapping" : [  ], "updateTime" : { "$date" : "2018-06-30T05:18:13.146+0000" } },
{ "_id" : { "$oid" : "5b37129558c7d83fd4332345" }, "id" : 148, "word" : "58", "value" : 147, "mapping" : [  ], "updateTime" : { "$date" : "2018-06-30T05:18:13.146+0000" } },
{ "_id" : { "$oid" : "5b37129558c7d83fd4332346" }, "id" : 149, "word" : "phòng_thí", "value" : 148, "mapping" : [  ], "updateTime" : { "$date" : "2018-06-30T05:18:13.146+0000" } },
{ "_id" : { "$oid" : "5b37129558c7d83fd4332347" }, "id" : 150, "word" : "nghiệm", "value" : 149, "mapping" : [  ], "updateTime" : { "$date" : "2018-06-30T05:18:13.146+0000" } },
{ "_id" : { "$oid" : "5b37129558c7d83fd4332348" }, "id" : 151, "word" : "98", "value" : 150, "mapping" : [  ], "updateTime" : { "$date" : "2018-06-30T05:18:13.146+0000" } },
{ "_id" : { "$oid" : "5b37129558c7d83fd4332349" }, "id" : 152, "word" : "xưởng", "value" : 151, "mapping" : [  ], "updateTime" : { "$date" : "2018-06-30T05:18:13.146+0000" } },
{ "_id" : { "$oid" : "5b37129558c7d83fd433234a" }, "id" : 153, "word" : "hành", "value" : 152, "mapping" : [  ], "updateTime" : { "$date" : "2018-06-30T05:18:13.146+0000" } },
{ "_id" : { "$oid" : "5b37129558c7d83fd433234b" }, "id" : 154, "word" : "Cấu", "value" : 153, "mapping" : [  ], "updateTime" : { "$date" : "2018-06-30T05:18:13.146+0000" } },
{ "_id" : { "$oid" : "5b37129558c7d83fd433234c" }, "id" : 155, "word" : "trúc", "value" : 154, "mapping" : [  ], "updateTime" : { "$date" : "2018-06-30T05:18:13.146+0000" } },
{ "_id" : { "$oid" : "5b37129558c7d83fd433234d" }, "id" : 156, "word" : "giải_thuật", "value" : 155, "mapping" : [  ], "updateTime" : { "$date" : "2018-06-30T05:18:13.146+0000" } },
{ "_id" : { "$oid" : "5b37129558c7d83fd433234e" }, "id" : 157, "word" : "Phương", "value" : 156, "mapping" : [  ], "updateTime" : { "$date" : "2018-06-30T05:18:13.146+0000" } },
{ "_id" : { "$oid" : "5b37129558c7d83fd433234f" }, "id" : 158, "word" : "lập", "value" : 157, "mapping" : [  ], "updateTime" : { "$date" : "2018-06-30T05:18:13.146+0000" } },
{ "_id" : { "$oid" : "5b37129558c7d83fd4332350" }, "id" : 159, "word" : "hướng", "value" : 158, "mapping" : [  ], "updateTime" : { "$date" : "2018-06-30T05:18:13.146+0000" } },
{ "_id" : { "$oid" : "5b37129558c7d83fd4332351" }, "id" : 160, "word" : "đối_tượng", "value" : 159, "mapping" : [  ], "updateTime" : { "$date" : "2018-06-30T05:18:13.146+0000" } },
{ "_id" : { "$oid" : "5b37129558c7d83fd4332352" }, "id" : 161, "word" : "Phần_mềm", "value" : 160, "mapping" : [  ], "updateTime" : { "$date" : "2018-06-30T05:18:13.146+0000" } },
{ "_id" : { "$oid" : "5b37129558c7d83fd4332353" }, "id" : 162, "word" : "Kiểm_thử", "value" : 161, "mapping" : [  ], "updateTime" : { "$date" : "2018-06-30T05:18:13.146+0000" } },
{ "_id" : { "$oid" : "5b37129558c7d83fd4332354" }, "id" : 163, "word" : "đào", "value" : 240, "mapping" : [  ], "updateTime" : { "$date" : "2018-06-30T05:18:13.146+0000" } },
{ "_id" : { "$oid" : "5b37129558c7d83fd4332355" }, "id" : 164, "word" : "sau", "value" : 231, "mapping" : [  ], "updateTime" : { "$date" : "2018-06-30T05:18:13.146+0000" } },
{ "_id" : { "$oid" : "5b37129558c7d83fd4332356" }, "id" : 165, "word" : "khi", "value" : 164, "mapping" : [  ], "updateTime" : { "$date" : "2018-06-30T05:18:13.146+0000" } },
{ "_id" : { "$oid" : "5b37129558c7d83fd4332357" }, "id" : 166, "word" : "tiêu", "value" : 165, "mapping" : [  ], "updateTime" : { "$date" : "2018-06-30T05:18:13.146+0000" } },
{ "_id" : { "$oid" : "5b37129558c7d83fd4332358" }, "id" : 167, "word" : "sinh", "value" : 166, "mapping" : [  ], "updateTime" : { "$date" : "2018-06-30T05:18:13.146+0000" } },
{ "_id" : { "$oid" : "5b37129558c7d83fd4332359" }, "id" : 168, "word" : "nghiệp", "value" : 167, "mapping" : [  ], "updateTime" : { "$date" : "2018-06-30T05:18:13.146+0000" } },
{ "_id" : { "$oid" : "5b37129558c7d83fd433235a" }, "id" : 169, "word" : "Khoa", "value" : 168, "mapping" : [  ], "updateTime" : { "$date" : "2018-06-30T05:18:13.146+0000" } },
{ "_id" : { "$oid" : "5b37129558c7d83fd433235b" }, "id" : 170, "word" : "chính", "value" : 169, "mapping" : [  ], "updateTime" : { "$date" : "2018-06-30T05:18:13.146+0000" } },
{ "_id" : { "$oid" : "5b37129558c7d83fd433235c" }, "id" : 171, "word" : "quy", "value" : 170, "mapping" : [  ], "updateTime" : { "$date" : "2018-06-30T05:18:13.146+0000" } },
{ "_id" : { "$oid" : "5b37129558c7d83fd433235d" }, "id" : 172, "word" : "4640", "value" : 171, "mapping" : [  ], "updateTime" : { "$date" : "2018-06-30T05:18:13.146+0000" } },
{ "_id" : { "$oid" : "5b37129558c7d83fd433235e" }, "id" : 173, "word" : "đó", "value" : 172, "mapping" : [  ], "updateTime" : { "$date" : "2018-06-30T05:18:13.146+0000" } },
{ "_id" : { "$oid" : "5b37129558c7d83fd433235f" }, "id" : 174, "word" : "300", "value" : 173, "mapping" : [  ], "updateTime" : { "$date" : "2018-06-30T05:18:13.146+0000" } },
{ "_id" : { "$oid" : "5b37129558c7d83fd4332360" }, "id" : 175, "word" : "14", "value" : 174, "mapping" : [  ], "updateTime" : { "$date" : "2018-06-30T05:18:13.146+0000" } },
{ "_id" : { "$oid" : "5b37129558c7d83fd4332361" }, "id" : 176, "word" : "7480201", "value" : 175, "mapping" : [  ], "updateTime" : { "$date" : "2018-06-30T05:18:13.146+0000" } },
{ "_id" : { "$oid" : "5b37129558c7d83fd4332362" }, "id" : 177, "word" : "Địa", "value" : 176, "mapping" : [  ], "updateTime" : { "$date" : "2018-06-30T05:18:13.146+0000" } },
{ "_id" : { "$oid" : "5b37129558c7d83fd4332363" }, "id" : 178, "word" : "chỉ", "value" : 184, "mapping" : [  ], "updateTime" : { "$date" : "2018-06-30T05:18:13.146+0000" } },
{ "_id" : { "$oid" : "5b37129558c7d83fd4332364" }, "id" : 179, "word" : "như_thế", "value" : 178, "mapping" : [  ], "updateTime" : { "$date" : "2018-06-30T05:18:13.146+0000" } },
{ "_id" : { "$oid" : "5b37129558c7d83fd4332365" }, "id" : 180, "word" : "2018", "value" : 179, "mapping" : [  ], "updateTime" : { "$date" : "2018-06-30T05:18:13.146+0000" } },
{ "_id" : { "$oid" : "5b37129558c7d83fd4332366" }, "id" : 181, "word" : "của", "value" : 180, "mapping" : [  ], "updateTime" : { "$date" : "2018-06-30T05:18:13.146+0000" } },
{ "_id" : { "$oid" : "5b37129558c7d83fd4332367" }, "id" : 182, "word" : "Cơ_hội", "value" : 181, "mapping" : [  ], "updateTime" : { "$date" : "2018-06-30T05:18:13.146+0000" } },
{ "_id" : { "$oid" : "5b37129558c7d83fd4332368" }, "id" : 183, "word" : "tốt", "value" : 182, "mapping" : [  ], "updateTime" : { "$date" : "2018-06-30T05:18:13.146+0000" } },
{ "_id" : { "$oid" : "5b37129558c7d83fd4332369" }, "id" : 184, "word" : "không", "value" : 183, "mapping" : [  ], "updateTime" : { "$date" : "2018-06-30T05:18:13.146+0000" } },
{ "_id" : { "$oid" : "5b37129558c7d83fd433236a" }, "id" : 185, "word" : "Chỉ", "value" : 184, "mapping" : [  ], "updateTime" : { "$date" : "2018-06-30T05:18:13.146+0000" } },
{ "_id" : { "$oid" : "5b37129558c7d83fd433236b" }, "id" : 186, "word" : "giảng", "value" : 185, "mapping" : [  ], "updateTime" : { "$date" : "2018-06-30T05:18:13.146+0000" } },
{ "_id" : { "$oid" : "5b37129558c7d83fd433236c" }, "id" : 187, "word" : "dạy", "value" : 186, "mapping" : [  ], "updateTime" : { "$date" : "2018-06-30T05:18:13.146+0000" } },
{ "_id" : { "$oid" : "5b37129558c7d83fd433236d" }, "id" : 188, "word" : "trước", "value" : 187, "mapping" : [  ], "updateTime" : { "$date" : "2018-06-30T05:18:13.146+0000" } },
{ "_id" : { "$oid" : "5b37129558c7d83fd433236e" }, "id" : 189, "word" : "ĐH", "value" : 188, "mapping" : [  ], "updateTime" : { "$date" : "2018-06-30T05:18:13.146+0000" } },
{ "_id" : { "$oid" : "5b37129558c7d83fd433236f" }, "id" : 190, "word" : "cơ_sở", "value" : 58, "mapping" : [  ], "updateTime" : { "$date" : "2018-06-30T05:18:13.146+0000" } },
{ "_id" : { "$oid" : "5b37129558c7d83fd4332370" }, "id" : 191, "word" : "tuyển", "value" : 190, "mapping" : [  ], "updateTime" : { "$date" : "2018-06-30T05:18:13.146+0000" } },
{ "_id" : { "$oid" : "5b37129558c7d83fd4332371" }, "id" : 192, "word" : "Kỹ_thuật", "value" : 191, "mapping" : [  ], "updateTime" : { "$date" : "2018-06-30T05:18:13.147+0000" } },
{ "_id" : { "$oid" : "5b37129558c7d83fd4332372" }, "id" : 193, "word" : "thuật", "value" : 192, "mapping" : [  ], "updateTime" : { "$date" : "2018-06-30T05:18:13.147+0000" } },
{ "_id" : { "$oid" : "5b37129558c7d83fd4332373" }, "id" : 194, "word" : "Những", "value" : 193, "mapping" : [  ], "updateTime" : { "$date" : "2018-06-30T05:18:13.147+0000" } },
{ "_id" : { "$oid" : "5b37129558c7d83fd4332374" }, "id" : 195, "word" : "viên", "value" : 194, "mapping" : [  ], "updateTime" : { "$date" : "2018-06-30T05:18:13.147+0000" } },
{ "_id" : { "$oid" : "5b37129558c7d83fd4332375" }, "id" : 196, "word" : "trang", "value" : 195, "mapping" : [  ], "updateTime" : { "$date" : "2018-06-30T05:18:13.147+0000" } },
{ "_id" : { "$oid" : "5b37129558c7d83fd4332376" }, "id" : 197, "word" : "bị", "value" : 196, "mapping" : [  ], "updateTime" : { "$date" : "2018-06-30T05:18:13.147+0000" } },
{ "_id" : { "$oid" : "5b37129558c7d83fd4332377" }, "id" : 198, "word" : "mã", "value" : 139, "mapping" : [  ], "updateTime" : { "$date" : "2018-06-30T05:18:13.147+0000" } },
{ "_id" : { "$oid" : "5b37129558c7d83fd4332378" }, "id" : 199, "word" : "TPHCM", "value" : 198, "mapping" : [  ], "updateTime" : { "$date" : "2018-06-30T05:18:13.147+0000" } },
{ "_id" : { "$oid" : "5b37129558c7d83fd4332379" }, "id" : 200, "word" : "nghề", "value" : 199, "mapping" : [  ], "updateTime" : { "$date" : "2018-06-30T05:18:13.147+0000" } },
{ "_id" : { "$oid" : "5b37129558c7d83fd433237a" }, "id" : 201, "word" : "Kỹ_Thuật", "value" : 200, "mapping" : [  ], "updateTime" : { "$date" : "2018-06-30T05:18:13.147+0000" } },
{ "_id" : { "$oid" : "5b37129558c7d83fd433237b" }, "id" : 202, "word" : "nằm", "value" : 201, "mapping" : [  ], "updateTime" : { "$date" : "2018-06-30T05:18:13.147+0000" } },
{ "_id" : { "$oid" : "5b37129558c7d83fd433237c" }, "id" : 203, "word" : "Trường_Đại_học", "value" : 202, "mapping" : [  ], "updateTime" : { "$date" : "2018-06-30T05:18:13.147+0000" } },
{ "_id" : { "$oid" : "5b37129558c7d83fd433237d" }, "id" : 204, "word" : "Phạm_Kỹ_Thuật", "value" : 203, "mapping" : [  ], "updateTime" : { "$date" : "2018-06-30T05:18:13.147+0000" } },
{ "_id" : { "$oid" : "5b37129558c7d83fd433237e" }, "id" : 205, "word" : "mà", "value" : 204, "mapping" : [  ], "updateTime" : { "$date" : "2018-06-30T05:18:13.147+0000" } },
{ "_id" : { "$oid" : "5b37129558c7d83fd433237f" }, "id" : 206, "word" : "tất", "value" : 205, "mapping" : [  ], "updateTime" : { "$date" : "2018-06-30T05:18:13.147+0000" } },
{ "_id" : { "$oid" : "5b37129558c7d83fd4332380" }, "id" : 207, "word" : "cả", "value" : 206, "mapping" : [  ], "updateTime" : { "$date" : "2018-06-30T05:18:13.147+0000" } },
{ "_id" : { "$oid" : "5b37129558c7d83fd4332381" }, "id" : 208, "word" : "xong", "value" : 207, "mapping" : [  ], "updateTime" : { "$date" : "2018-06-30T05:18:13.147+0000" } },
{ "_id" : { "$oid" : "5b37129558c7d83fd4332382" }, "id" : 209, "word" : "Kỹ_năng", "value" : 208, "mapping" : [  ], "updateTime" : { "$date" : "2018-06-30T05:18:13.147+0000" } },
{ "_id" : { "$oid" : "5b37129558c7d83fd4332383" }, "id" : 210, "word" : "Trường_Đại", "value" : 209, "mapping" : [  ], "updateTime" : { "$date" : "2018-06-30T05:18:13.147+0000" } },
{ "_id" : { "$oid" : "5b37129558c7d83fd4332384" }, "id" : 211, "word" : "Kỹ", "value" : 210, "mapping" : [  ], "updateTime" : { "$date" : "2018-06-30T05:18:13.147+0000" } },
{ "_id" : { "$oid" : "5b37129558c7d83fd4332385" }, "id" : 212, "word" : "vật", "value" : 211, "mapping" : [  ], "updateTime" : { "$date" : "2018-06-30T05:18:13.147+0000" } },
{ "_id" : { "$oid" : "5b37129558c7d83fd4332386" }, "id" : 213, "word" : "chất", "value" : 212, "mapping" : [  ], "updateTime" : { "$date" : "2018-06-30T05:18:13.147+0000" } },
{ "_id" : { "$oid" : "5b37129558c7d83fd4332387" }, "id" : 214, "word" : "Hệ_đại", "value" : 213, "mapping" : [  ], "updateTime" : { "$date" : "2018-06-30T05:18:13.147+0000" } },
{ "_id" : { "$oid" : "5b37129558c7d83fd4332388" }, "id" : 215, "word" : "mũi", "value" : 214, "mapping" : [  ], "updateTime" : { "$date" : "2018-06-30T05:18:13.147+0000" } },
{ "_id" : { "$oid" : "5b37129558c7d83fd4332389" }, "id" : 216, "word" : "nhọn", "value" : 215, "mapping" : [  ], "updateTime" : { "$date" : "2018-06-30T05:18:13.147+0000" } },
{ "_id" : { "$oid" : "5b37129558c7d83fd433238a" }, "id" : 217, "word" : "lợi", "value" : 216, "mapping" : [  ], "updateTime" : { "$date" : "2018-06-30T05:18:13.147+0000" } },
{ "_id" : { "$oid" : "5b37129558c7d83fd433238b" }, "id" : 218, "word" : "ích", "value" : 217, "mapping" : [  ], "updateTime" : { "$date" : "2018-06-30T05:18:13.147+0000" } },
{ "_id" : { "$oid" : "5b37129558c7d83fd433238c" }, "id" : 219, "word" : "học_môn", "value" : 218, "mapping" : [  ], "updateTime" : { "$date" : "2018-06-30T05:18:13.147+0000" } },
{ "_id" : { "$oid" : "5b37129558c7d83fd433238d" }, "id" : 220, "word" : "20162017", "value" : 219, "mapping" : [  ], "updateTime" : { "$date" : "2018-06-30T05:18:13.147+0000" } },
{ "_id" : { "$oid" : "5b37129558c7d83fd433238e" }, "id" : 221, "word" : "ngoái", "value" : 220, "mapping" : [  ], "updateTime" : { "$date" : "2018-06-30T05:18:13.147+0000" } },
{ "_id" : { "$oid" : "5b37129558c7d83fd433238f" }, "id" : 222, "word" : "Mã_ngành", "value" : 221, "mapping" : [  ], "updateTime" : { "$date" : "2018-06-30T05:18:13.147+0000" } },
{ "_id" : { "$oid" : "5b37129558c7d83fd4332390" }, "id" : 223, "word" : "Ghi", "value" : 222, "mapping" : [  ], "updateTime" : { "$date" : "2018-06-30T05:18:13.147+0000" } },
{ "_id" : { "$oid" : "5b37129558c7d83fd4332391" }, "id" : 224, "word" : "20152016", "value" : 223, "mapping" : [  ], "updateTime" : { "$date" : "2018-06-30T05:18:13.147+0000" } },
{ "_id" : { "$oid" : "5b37129558c7d83fd4332392" }, "id" : 225, "word" : "phạm_kỹ", "value" : 224, "mapping" : [  ], "updateTime" : { "$date" : "2018-06-30T05:18:13.147+0000" } },
{ "_id" : { "$oid" : "5b37129558c7d83fd4332393" }, "id" : 226, "word" : "Tổng_chỉ", "value" : 225, "mapping" : [  ], "updateTime" : { "$date" : "2018-06-30T05:18:13.147+0000" } },
{ "_id" : { "$oid" : "5b37129558c7d83fd4332394" }, "id" : 227, "word" : "này", "value" : 226, "mapping" : [  ], "updateTime" : { "$date" : "2018-06-30T05:18:13.147+0000" } },
{ "_id" : { "$oid" : "5b37129558c7d83fd4332395" }, "id" : 228, "word" : "xin", "value" : 227, "mapping" : [  ], "updateTime" : { "$date" : "2018-06-30T05:18:13.147+0000" } },
{ "_id" : { "$oid" : "5b37129558c7d83fd4332396" }, "id" : 229, "word" : "đang", "value" : 228, "mapping" : [  ], "updateTime" : { "$date" : "2018-06-30T05:18:13.147+0000" } },
{ "_id" : { "$oid" : "5b37129558c7d83fd4332397" }, "id" : 230, "word" : "gồm", "value" : 229, "mapping" : [  ], "updateTime" : { "$date" : "2018-06-30T05:18:13.147+0000" } },
{ "_id" : { "$oid" : "5b37129558c7d83fd4332398" }, "id" : 231, "word" : "đại_học", "value" : 237, "mapping" : [  ], "updateTime" : { "$date" : "2018-06-30T05:18:13.147+0000" } },
{ "_id" : { "$oid" : "5b37129558c7d83fd4332399" }, "id" : 232, "word" : "Sau", "value" : 231, "mapping" : [  ], "updateTime" : { "$date" : "2018-06-30T05:18:13.147+0000" } },
{ "_id" : { "$oid" : "5b37129558c7d83fd433239a" }, "id" : 233, "word" : "Tỉ_lệ", "value" : 232, "mapping" : [  ], "updateTime" : { "$date" : "2018-06-30T05:18:13.147+0000" } },
{ "_id" : { "$oid" : "5b37129558c7d83fd433239b" }, "id" : 234, "word" : "Dễ", "value" : 233, "mapping" : [  ], "updateTime" : { "$date" : "2018-06-30T05:18:13.147+0000" } },
{ "_id" : { "$oid" : "5b37129558c7d83fd433239c" }, "id" : 235, "word" : "kiếm", "value" : 234, "mapping" : [  ], "updateTime" : { "$date" : "2018-06-30T05:18:13.147+0000" } },
{ "_id" : { "$oid" : "5b37129558c7d83fd433239d" }, "id" : 236, "word" : "Hồ_chí", "value" : 235, "mapping" : [  ], "updateTime" : { "$date" : "2018-06-30T05:18:13.147+0000" } },
{ "_id" : { "$oid" : "5b37129558c7d83fd433239e" }, "id" : 237, "word" : "Minh", "value" : 236, "mapping" : [  ], "updateTime" : { "$date" : "2018-06-30T05:18:13.147+0000" } },
{ "_id" : { "$oid" : "5b37129558c7d83fd433239f" }, "id" : 238, "word" : "Đại_Học", "value" : 237, "mapping" : [  ], "updateTime" : { "$date" : "2018-06-30T05:18:13.147+0000" } },
{ "_id" : { "$oid" : "5b37129558c7d83fd43323a0" }, "id" : 239, "word" : "sao", "value" : 238, "mapping" : [  ], "updateTime" : { "$date" : "2018-06-30T05:18:13.147+0000" } },
{ "_id" : { "$oid" : "5b37129558c7d83fd43323a1" }, "id" : 240, "word" : "Bao_nhiêu", "value" : 239, "mapping" : [  ], "updateTime" : { "$date" : "2018-06-30T05:18:13.147+0000" } },
{ "_id" : { "$oid" : "5b37129558c7d83fd43323a2" }, "id" : 241, "word" : "Đào", "value" : 240, "mapping" : [  ], "updateTime" : { "$date" : "2018-06-30T05:18:13.147+0000" } },
{ "_id" : { "$oid" : "5b37129558c7d83fd43323a3" }, "id" : 242, "word" : "Việc", "value" : 241, "mapping" : [  ], "updateTime" : { "$date" : "2018-06-30T05:18:13.147+0000" } },
{ "_id" : { "$oid" : "5b37129558c7d83fd43323a4" }, "id" : 243, "word" : "Tốt_nghiệp", "value" : 242, "mapping" : [  ], "updateTime" : { "$date" : "2018-06-30T05:18:13.147+0000" } },
{ "_id" : { "$oid" : "5b37129558c7d83fd43323a5" }, "id" : 244, "word" : "Chuyên", "value" : 243, "mapping" : [  ], "updateTime" : { "$date" : "2018-06-30T05:18:13.147+0000" } },
{ "_id" : { "$oid" : "5b37129558c7d83fd43323a6" }, "id" : 245, "word" : "nhận", "value" : 244, "mapping" : [  ], "updateTime" : { "$date" : "2018-06-30T05:18:13.147+0000" } },
{ "_id" : { "$oid" : "5b37129558c7d83fd43323a7" }, "id" : 246, "word" : "đạt", "value" : 245, "mapping" : [  ], "updateTime" : { "$date" : "2018-06-30T05:18:13.147+0000" } },
{ "_id" : { "$oid" : "5b37129558c7d83fd43323a8" }, "id" : 247, "word" : "Môn", "value" : 246, "mapping" : [  ], "updateTime" : { "$date" : "2018-06-30T05:18:13.147+0000" } },
{ "_id" : { "$oid" : "5b37129558c7d83fd43323a9" }, "id" : 248, "word" : "Chương", "value" : 247, "mapping" : [  ], "updateTime" : { "$date" : "2018-06-30T05:18:13.147+0000" } },
{ "_id" : { "$oid" : "5b37129558c7d83fd43323aa" }, "id" : 249, "word" : "đi", "value" : 248, "mapping" : [  ], "updateTime" : { "$date" : "2018-06-30T05:18:13.147+0000" } },
{ "_id" : { "$oid" : "5b37129558c7d83fd43323ab" }, "id" : 250, "word" : "công_nghệ_thông", "value" : 9, "mapping" : [  ], "updateTime" : { "$date" : "2018-06-30T05:18:13.147+0000" } },
{ "_id" : { "$oid" : "5b37129558c7d83fd43323ac" }, "id" : 251, "word" : "cntt", "value" : 15, "mapping" : [  ], "updateTime" : { "$date" : "2018-06-30T05:18:13.147+0000" } },
{ "_id" : { "$oid" : "5b37129558c7d83fd43323ad" }, "id" : 252, "word" : "spkt", "value" : 54, "mapping" : [  ], "updateTime" : { "$date" : "2018-06-30T05:18:13.147+0000" } },
{ "_id" : { "$oid" : "5b37129558c7d83fd43323ae" }, "id" : 253, "word" : "công_nghệ", "value" : 63, "mapping" : [  ], "updateTime" : { "$date" : "2018-06-30T05:18:13.147+0000" } },
{ "_id" : { "$oid" : "5b37129558c7d83fd43323af" }, "id" : 254, "word" : "mạng_máy", "value" : 64, "mapping" : [  ], "updateTime" : { "$date" : "2018-06-30T05:18:13.147+0000" } },
{ "_id" : { "$oid" : "5b37129558c7d83fd43323b0" }, "id" : 255, "word" : "số", "value" : 90, "mapping" : [  ], "updateTime" : { "$date" : "2018-06-30T05:18:13.147+0000" } },
{ "_id" : { "$oid" : "5b37129558c7d83fd43323b1" }, "id" : 256, "word" : "thành", "value" : 102, "mapping" : [  ], "updateTime" : { "$date" : "2018-06-30T05:18:13.147+0000" } },
{ "_id" : { "$oid" : "5b37129558c7d83fd43323b2" }, "id" : 257, "word" : "khối", "value" : 108, "mapping" : [  ], "updateTime" : { "$date" : "2018-06-30T05:18:13.147+0000" } },
{ "_id" : { "$oid" : "5b37129558c7d83fd43323b3" }, "id" : 258, "word" : "a", "value" : 109, "mapping" : [  ], "updateTime" : { "$date" : "2018-06-30T05:18:13.147+0000" } },
{ "_id" : { "$oid" : "5b37129558c7d83fd43323b4" }, "id" : 259, "word" : "võ_văn_ngân", "value" : 111, "mapping" : [  ], "updateTime" : { "$date" : "2018-06-30T05:18:13.147+0000" } },
{ "_id" : { "$oid" : "5b37129558c7d83fd43323b5" }, "id" : 260, "word" : "phường", "value" : 112, "mapping" : [  ], "updateTime" : { "$date" : "2018-06-30T05:18:13.147+0000" } },
{ "_id" : { "$oid" : "5b37129558c7d83fd43323b6" }, "id" : 261, "word" : "linh_chiểu", "value" : 113, "mapping" : [  ], "updateTime" : { "$date" : "2018-06-30T05:18:13.147+0000" } },
{ "_id" : { "$oid" : "5b37129558c7d83fd43323b7" }, "id" : 262, "word" : "quận", "value" : 114, "mapping" : [  ], "updateTime" : { "$date" : "2018-06-30T05:18:13.147+0000" } },
{ "_id" : { "$oid" : "5b37129558c7d83fd43323b8" }, "id" : 263, "word" : "thủ_đức", "value" : 115, "mapping" : [  ], "updateTime" : { "$date" : "2018-06-30T05:18:13.147+0000" } },
{ "_id" : { "$oid" : "5b37129558c7d83fd43323b9" }, "id" : 264, "word" : "hồ_chí_minh", "value" : 116, "mapping" : [  ], "updateTime" : { "$date" : "2018-06-30T05:18:13.147+0000" } },
{ "_id" : { "$oid" : "5b37129558c7d83fd43323ba" }, "id" : 265, "word" : "sinh_viên", "value" : 137, "mapping" : [  ], "updateTime" : { "$date" : "2018-06-30T05:18:13.147+0000" } },
{ "_id" : { "$oid" : "5b37129558c7d83fd43323bb" }, "id" : 266, "word" : "gần", "value" : 140, "mapping" : [  ], "updateTime" : { "$date" : "2018-06-30T05:18:13.147+0000" } },
{ "_id" : { "$oid" : "5b37129558c7d83fd43323bc" }, "id" : 267, "word" : "cấu", "value" : 153, "mapping" : [  ], "updateTime" : { "$date" : "2018-06-30T05:18:13.147+0000" } },
{ "_id" : { "$oid" : "5b37129558c7d83fd43323bd" }, "id" : 268, "word" : "phương", "value" : 156, "mapping" : [  ], "updateTime" : { "$date" : "2018-06-30T05:18:13.147+0000" } },
{ "_id" : { "$oid" : "5b37129558c7d83fd43323be" }, "id" : 269, "word" : "phần_mềm", "value" : 160, "mapping" : [  ], "updateTime" : { "$date" : "2018-06-30T05:18:13.147+0000" } },
{ "_id" : { "$oid" : "5b37129558c7d83fd43323bf" }, "id" : 270, "word" : "kiểm_thử", "value" : 161, "mapping" : [  ], "updateTime" : { "$date" : "2018-06-30T05:18:13.147+0000" } },
{ "_id" : { "$oid" : "5b37129558c7d83fd43323c0" }, "id" : 271, "word" : "địa", "value" : 176, "mapping" : [  ], "updateTime" : { "$date" : "2018-06-30T05:18:13.147+0000" } },
{ "_id" : { "$oid" : "5b37129558c7d83fd43323c1" }, "id" : 272, "word" : "cơ_hội", "value" : 181, "mapping" : [  ], "updateTime" : { "$date" : "2018-06-30T05:18:13.147+0000" } },
{ "_id" : { "$oid" : "5b37129558c7d83fd43323c2" }, "id" : 273, "word" : "đh", "value" : 188, "mapping" : [  ], "updateTime" : { "$date" : "2018-06-30T05:18:13.147+0000" } },
{ "_id" : { "$oid" : "5b37129558c7d83fd43323c3" }, "id" : 274, "word" : "kỹ_thuật", "value" : 200, "mapping" : [  ], "updateTime" : { "$date" : "2018-06-30T05:18:13.147+0000" } },
{ "_id" : { "$oid" : "5b37129558c7d83fd43323c4" }, "id" : 275, "word" : "tphcm", "value" : 198, "mapping" : [  ], "updateTime" : { "$date" : "2018-06-30T05:18:13.147+0000" } },
{ "_id" : { "$oid" : "5b37129558c7d83fd43323c5" }, "id" : 276, "word" : "trường_đại_học", "value" : 202, "mapping" : [  ], "updateTime" : { "$date" : "2018-06-30T05:18:13.147+0000" } },
{ "_id" : { "$oid" : "5b37129558c7d83fd43323c6" }, "id" : 277, "word" : "phạm_kỹ_thuật", "value" : 203, "mapping" : [  ], "updateTime" : { "$date" : "2018-06-30T05:18:13.147+0000" } },
{ "_id" : { "$oid" : "5b37129558c7d83fd43323c7" }, "id" : 278, "word" : "kỹ_năng", "value" : 208, "mapping" : [  ], "updateTime" : { "$date" : "2018-06-30T05:18:13.147+0000" } },
{ "_id" : { "$oid" : "5b37129558c7d83fd43323c8" }, "id" : 279, "word" : "trường_đại", "value" : 209, "mapping" : [  ], "updateTime" : { "$date" : "2018-06-30T05:18:13.147+0000" } },
{ "_id" : { "$oid" : "5b37129558c7d83fd43323c9" }, "id" : 280, "word" : "hệ_đại", "value" : 213, "mapping" : [  ], "updateTime" : { "$date" : "2018-06-30T05:18:13.147+0000" } },
{ "_id" : { "$oid" : "5b37129558c7d83fd43323ca" }, "id" : 281, "word" : "mã_ngành", "value" : 221, "mapping" : [  ], "updateTime" : { "$date" : "2018-06-30T05:18:13.147+0000" } },
{ "_id" : { "$oid" : "5b37129558c7d83fd43323cb" }, "id" : 282, "word" : "ghi", "value" : 222, "mapping" : [  ], "updateTime" : { "$date" : "2018-06-30T05:18:13.147+0000" } },
{ "_id" : { "$oid" : "5b37129558c7d83fd43323cc" }, "id" : 283, "word" : "tổng_chỉ", "value" : 225, "mapping" : [  ], "updateTime" : { "$date" : "2018-06-30T05:18:13.148+0000" } },
{ "_id" : { "$oid" : "5b37129558c7d83fd43323cd" }, "id" : 284, "word" : "tỉ_lệ", "value" : 232, "mapping" : [  ], "updateTime" : { "$date" : "2018-06-30T05:18:13.148+0000" } },
{ "_id" : { "$oid" : "5b37129558c7d83fd43323ce" }, "id" : 285, "word" : "dễ", "value" : 233, "mapping" : [  ], "updateTime" : { "$date" : "2018-06-30T05:18:13.148+0000" } },
{ "_id" : { "$oid" : "5b37129558c7d83fd43323cf" }, "id" : 286, "word" : "hồ_chí", "value" : 235, "mapping" : [  ], "updateTime" : { "$date" : "2018-06-30T05:18:13.148+0000" } },
{ "_id" : { "$oid" : "5b37129558c7d83fd43323d0" }, "id" : 287, "word" : "minh", "value" : 236, "mapping" : [  ], "updateTime" : { "$date" : "2018-06-30T05:18:13.148+0000" } },
{ "_id" : { "$oid" : "5b37129558c7d83fd43323d1" }, "id" : 288, "word" : "bao_nhiêu", "value" : 239, "mapping" : [  ], "updateTime" : { "$date" : "2018-06-30T05:18:13.148+0000" } },
{ "_id" : { "$oid" : "5b37129558c7d83fd43323d2" }, "id" : 289, "word" : "tốt_nghiệp", "value" : 242, "mapping" : [  ], "updateTime" : { "$date" : "2018-06-30T05:18:13.148+0000" } },
{ "_id" : { "$oid" : "5b37129558c7d83fd43323d3" }, "id" : 290, "word" : "chương", "value" : 247, "mapping" : [  ], "updateTime" : { "$date" : "2018-06-30T05:18:13.148+0000" } }
]
