[
  {
    "_id": {
      "$oid": "5b0ff1831f2b611decd246c1"
    },
    "id": 2,
    "questionMessage": "Địa chỉ Trường Đại học Sư phạm Kỹ Thuật nằm ở đâu?",
    "answerMessage": "<p>Số 01 Võ Văn Ngân, Phường Linh Chiểu, Quận Thủ Đức, Thành phố Hồ Chí Minh.</p>",
    "questionProcessed": "Địa chỉ Trường_Đại học Sư phạm Kỹ_Thuật nằm ở đâu ",
    "answerProcessed": "Số 01 Võ_Văn_Ngân  Phường Linh_Chiểu  Quận Thủ_Đức  Thành phố Hồ_Chí_Minh ",
    "timeDate": {
      "$date": "2018-05-31T12:58:43.365+0000"
    }
  },
  {
    "_id": {
      "$oid": "5b0ff1be1f2b611decd246c3"
    },
    "id": 3,
    "questionMessage": "Địa chỉ Đại học Sư phạm Kỹ Thuật?",
    "answerMessage": "<p>Số 01 Võ Văn Ngân, Phường Linh Chiểu, Quận Thủ Đức, Thành phố Hồ Chí Minh.</p>",
    "questionProcessed": "Địa chỉ Đại_học Sư phạm Kỹ_Thuật ",
    "answerProcessed": "Số 01 Võ_Văn_Ngân  Phường Linh_Chiểu  Quận Thủ_Đức  Thành phố Hồ_Chí_Minh ",
    "timeDate": {
      "$date": "2018-05-31T12:59:42.228+0000"
    }
  },
  {
    "_id": {
      "$oid": "5b0ff1c91f2b611decd246c5"
    },
    "id": 4,
    "questionMessage": "Đại học Sư phạm Kỹ thuật nằm ở đâu?",
    "answerMessage": "<table border=\"1\" cellpadding=\"0\" cellspacing=\"0\"><tbody><tr><td valign=\"top\" width=\"312\"><p>Số 01 Võ Văn Ngân, Phường Linh Chiểu, Quận Thủ Đức, Thành phố Hồ Chí Minh.</p></td></tr></tbody></table>",
    "questionProcessed": "Đại_học Sư phạm Kỹ thuật nằm ở đâu ",
    "answerProcessed": "Số 01 Võ_Văn_Ngân  Phường Linh_Chiểu  Quận Thủ_Đức  Thành phố Hồ_Chí_Minh ",
    "timeDate": {
      "$date": "2018-05-31T12:59:53.281+0000"
    }
  },
  {
    "_id": {
      "$oid": "5b0ff1d11f2b611decd246c7"
    },
    "id": 5,
    "questionMessage": "Địa chỉ Trường Đại học SPKT?",
    "answerMessage": "<table border=\"1\" cellpadding=\"0\" cellspacing=\"0\"><tbody><tr><td valign=\"top\" width=\"312\"><p>Số 01 Võ Văn Ngân, Phường Linh Chiểu, Quận Thủ Đức, Thành phố Hồ Chí Minh.</p></td></tr></tbody></table>",
    "questionProcessed": "Địa chỉ Trường_Đại_học SPKT ",
    "answerProcessed": "Số 01 Võ_Văn_Ngân  Phường Linh_Chiểu  Quận Thủ_Đức  Thành phố Hồ_Chí_Minh ",
    "timeDate": {
      "$date": "2018-05-31T13:00:01.100+0000"
    }
  },
  {
    "_id": {
      "$oid": "5b0ff1da1f2b611decd246c9"
    },
    "id": 6,
    "questionMessage": "Địa chỉ Đại học SPKT?",
    "answerMessage": "<table border=\"1\" cellpadding=\"0\" cellspacing=\"0\"><tbody><tr><td valign=\"top\" width=\"312\"><p>Số 01 Võ Văn Ngân, Phường Linh Chiểu, Quận Thủ Đức, Thành phố Hồ Chí Minh.</p></td></tr></tbody></table>",
    "questionProcessed": "Địa chỉ Đại_học SPKT ",
    "answerProcessed": "Số 01 Võ_Văn_Ngân  Phường Linh_Chiểu  Quận Thủ_Đức  Thành phố Hồ_Chí_Minh ",
    "timeDate": {
      "$date": "2018-05-31T13:00:10.613+0000"
    }
  },
  {
    "_id": {
      "$oid": "5b1026a31f2b611ae420773f"
    },
    "id": 7,
    "questionMessage": "Cơ sở vật chất Trường Đại học Sư Phạm Kỹ Thuật như thế nào?",
    "answerMessage": "<table border=\"1\" cellpadding=\"0\" cellspacing=\"0\"><tbody><tr><td valign=\"top\" width=\"312\"><p>Gần 200 phòng học lý thuyết, 60 phòng học chuyên dùng 16 phòng học máy tính, 58 phòng thí nghiệm, 98 xưởng thực hành hiện đại.</p></td></tr></tbody></table>",
    "questionProcessed": "Cơ_sở vật_chất Trường_Đại học Sư Phạm_Kỹ_Thuật như_thế nào ",
    "answerProcessed": "Gần 200 phòng học lý_thuyết  60 phòng học chuyên dùng 16 phòng học máy tính  58 phòng_thí nghiệm  98 xưởng thực hành hiện đại ",
    "timeDate": {
      "$date": "2018-05-31T16:45:23.654+0000"
    }
  },
  {
    "_id": {
      "$oid": "5b1026ac1f2b611ae4207741"
    },
    "id": 8,
    "questionMessage": "Cơ sở vật chất Đại học Sư Phạm Kỹ Thuật như thế nào?",
    "answerMessage": "<table border=\"1\" cellpadding=\"0\" cellspacing=\"0\"><tbody><tr><td valign=\"top\" width=\"312\"><p>Gần 200 phòng học lý thuyết, 60 phòng học chuyên dùng 16 phòng học máy tính, 58 phòng thí nghiệm, 98 xưởng thực hành hiện đại.</p></td></tr></tbody></table>",
    "questionProcessed": "Cơ_sở vật chất Đại_học Sư Phạm_Kỹ_Thuật như_thế nào ",
    "answerProcessed": "Gần 200 phòng học lý_thuyết  60 phòng học chuyên dùng 16 phòng học máy tính  58 phòng_thí nghiệm  98 xưởng thực hành hiện đại ",
    "timeDate": {
      "$date": "2018-05-31T16:45:32.685+0000"
    }
  },
  {
    "_id": {
      "$oid": "5b1026b91f2b611ae4207743"
    },
    "id": 9,
    "questionMessage": "Cơ sở vật chất Trường Sư Phạm Kỹ Thuật?",
    "answerMessage": "<p>Gần 200 phòng học lý thuyết, 60 phòng học chuyên dùng 16 phòng học máy tính, 58 phòng thí nghiệm, 98 xưởng thực hành hiện đại.</p>",
    "questionProcessed": "Cơ_sở vật_chất Trường Sư Phạm_Kỹ_Thuật ",
    "answerProcessed": "Gần 200 phòng học lý_thuyết  60 phòng học chuyên dùng 16 phòng học máy tính  58 phòng_thí nghiệm  98 xưởng thực hành hiện đại ",
    "timeDate": {
      "$date": "2018-05-31T16:45:45.561+0000"
    }
  },
  {
    "_id": {
      "$oid": "5b1026c61f2b611ae4207745"
    },
    "id": 10,
    "questionMessage": "Cơ sở vật chất Đại học SPKT?",
    "answerMessage": "<p>Gần 200 phòng học lý thuyết, 60 phòng học chuyên dùng 16 phòng học máy tính, 58 phòng thí nghiệm, 98 xưởng thực hành hiện đại.</p>",
    "questionProcessed": "Cơ_sở vật chất Đại_học SPKT ",
    "answerProcessed": "Gần 200 phòng học lý_thuyết  60 phòng học chuyên dùng 16 phòng học máy tính  58 phòng_thí nghiệm  98 xưởng thực hành hiện đại ",
    "timeDate": {
      "$date": "2018-05-31T16:45:58.296+0000"
    }
  },
  {
    "_id": {
      "$oid": "5b1026ce1f2b611ae4207747"
    },
    "id": 11,
    "questionMessage": "Cơ sở vật chất Trường Đại học SPKT?",
    "answerMessage": "<p>Cơ sở vật chất Trường Đại học SPKT?</p>",
    "questionProcessed": "Cơ_sở vật_chất Trường_Đại_học SPKT ",
    "answerProcessed": "Cơ_sở vật_chất Trường_Đại_học SPKT ",
    "timeDate": {
      "$date": "2018-05-31T16:46:06.051+0000"
    }
  },
  {
    "_id": {
      "$oid": "5b1026fd1f2b611ae420774b"
    },
    "id": 13,
    "questionMessage": "Chỉ tiêu tuyển sinh năm 2018?",
    "answerMessage": "<p>Đại học chính quy: 4.640, trong đó hệ Sư phạm: 300</p>",
    "questionProcessed": "Chỉ tiêu tuyển sinh năm 2018 ",
    "answerProcessed": "Đại_học chính quy  4640  trong đó hệ Sư phạm  300",
    "timeDate": {
      "$date": "2018-05-31T16:46:53.144+0000"
    }
  },
  {
    "_id": {
      "$oid": "5b1027241f2b611ae420774f"
    },
    "id": 15,
    "questionMessage": "Chỉ tiêu tuyển sinh 2018?",
    "answerMessage": "<p>Đại học chính quy: 4.640, trong đó hệ Sư phạm: 300</p>",
    "questionProcessed": "Chỉ tiêu tuyển sinh 2018 ",
    "answerProcessed": "Đại_học chính quy  4640  trong đó hệ Sư phạm  300",
    "timeDate": {
      "$date": "2018-05-31T16:47:32.071+0000"
    }
  },
  {
    "_id": {
      "$oid": "5b1027291f2b611ae4207751"
    },
    "id": 16,
    "questionMessage": "Chỉ tiêu tuyển sinh của trường năm 2018?",
    "answerMessage": "<p>Đại học chính quy: 4.640, trong đó hệ Sư phạm: 300</p>",
    "questionProcessed": "Chỉ tiêu tuyển sinh của trường năm 2018 ",
    "answerProcessed": "Đại_học chính quy  4640  trong đó hệ Sư phạm  300",
    "timeDate": {
      "$date": "2018-05-31T16:47:37.514+0000"
    }
  },
  {
    "_id": {
      "$oid": "5b10272e1f2b611ae4207753"
    },
    "id": 17,
    "questionMessage": "Chỉ tiêu tuyển sinh của trường 2018?",
    "answerMessage": "<p>Đại học chính quy: 4.640, trong đó hệ Sư phạm: 300</p>",
    "questionProcessed": "Chỉ tiêu tuyển sinh của trường 2018 ",
    "answerProcessed": "Đại_học chính quy  4640  trong đó hệ Sư phạm  300",
    "timeDate": {
      "$date": "2018-05-31T16:47:42.754+0000"
    }
  },
  {
    "_id": {
      "$oid": "5b10276d1f2b611ae4207757"
    },
    "id": 19,
    "questionMessage": "Có bao nhiêu ngành hệ đại trà?",
    "answerMessage": "<p>Có 35 ngành.</p>",
    "questionProcessed": "Có bao nhiêu ngành hệ đại trà ",
    "answerProcessed": "Có 35 ngành ",
    "timeDate": {
      "$date": "2018-05-31T16:48:45.817+0000"
    }
  },
  {
    "_id": {
      "$oid": "5b1027721f2b611ae4207759"
    },
    "id": 20,
    "questionMessage": "Hệ đại trà có bao nhiêu ngành?",
    "answerMessage": "<p>Có 35 ngành.</p>",
    "questionProcessed": "Hệ đại trà có bao nhiêu ngành ",
    "answerProcessed": "Có 35 ngành ",
    "timeDate": {
      "$date": "2018-05-31T16:48:50.733+0000"
    }
  },
  {
    "_id": {
      "$oid": "5b1027781f2b611ae420775b"
    },
    "id": 21,
    "questionMessage": "Trường có bao nhiêu ngành hệ đại trà?",
    "answerMessage": "<p>Có 35 ngành.</p>",
    "questionProcessed": "Trường có bao nhiêu ngành hệ đại trà ",
    "answerProcessed": "Có 35 ngành ",
    "timeDate": {
      "$date": "2018-05-31T16:48:56.188+0000"
    }
  },
  {
    "_id": {
      "$oid": "5b10277e1f2b611ae420775d"
    },
    "id": 22,
    "questionMessage": "Trường giảng dạy những ngành nào?",
    "answerMessage": "<p>Có 35 ngành.</p>",
    "questionProcessed": "Trường giảng dạy những ngành nào ",
    "answerProcessed": "Có 35 ngành ",
    "timeDate": {
      "$date": "2018-05-31T16:49:02.276+0000"
    }
  },
  {
    "_id": {
      "$oid": "5b1027831f2b611ae420775f"
    },
    "id": 23,
    "questionMessage": "Hệ đại học có bao nhiêu ngành?",
    "answerMessage": "<p>Có 35 ngành.</p>",
    "questionProcessed": "Hệ_đại học có bao nhiêu ngành ",
    "answerProcessed": "Có 35 ngành ",
    "timeDate": {
      "$date": "2018-05-31T16:49:07.422+0000"
    }
  },
  {
    "_id": {
      "$oid": "5b10278b1f2b611ae4207761"
    },
    "id": 24,
    "questionMessage": "Những ngành nào mà trường đang giảng dạy?",
    "answerMessage": "<p>Có 35 ngành.</p>",
    "questionProcessed": "Những ngành nào mà trường đang giảng dạy ",
    "answerProcessed": "Có 35 ngành ",
    "timeDate": {
      "$date": "2018-05-31T16:49:15.349+0000"
    }
  },
  {
    "_id": {
      "$oid": "5b1027b81f2b611ae4207765"
    },
    "id": 26,
    "questionMessage": "Có bao nhiêu ngành hệ sư phạm?",
    "answerMessage": "<p>Có 14 ngành.</p>",
    "questionProcessed": "Có bao nhiêu ngành hệ sư phạm ",
    "answerProcessed": "Có 14 ngành ",
    "timeDate": {
      "$date": "2018-05-31T16:50:00.799+0000"
    }
  },
  {
    "_id": {
      "$oid": "5b1027be1f2b611ae4207767"
    },
    "id": 27,
    "questionMessage": "Hệ sư phạm gồm bao nhiêu ngành?",
    "answerMessage": "<p>Có 14 ngành.</p>",
    "questionProcessed": "Hệ sư phạm gồm bao nhiêu ngành ",
    "answerProcessed": "Có 14 ngành ",
    "timeDate": {
      "$date": "2018-05-31T16:50:06.043+0000"
    }
  },
  {
    "_id": {
      "$oid": "5b1027c41f2b611ae4207769"
    },
    "id": 28,
    "questionMessage": "Hệ sư phạm có bao nhiêu ngành?",
    "answerMessage": "<p>Có 14 ngành.</p>",
    "questionProcessed": "Hệ sư phạm có bao nhiêu ngành ",
    "answerProcessed": "Có 14 ngành ",
    "timeDate": {
      "$date": "2018-05-31T16:50:12.005+0000"
    }
  },
  {
    "_id": {
      "$oid": "5b1027d41f2b611ae420776b"
    },
    "id": 29,
    "questionMessage": "Trường có bao nhiêu ngành hệ sư phạm?",
    "answerMessage": "<p>Trường có bao nhiêu ngành hệ sư phạm?</p>",
    "questionProcessed": "Trường có bao nhiêu ngành hệ sư phạm ",
    "answerProcessed": "Trường có bao nhiêu ngành hệ sư phạm ",
    "timeDate": {
      "$date": "2018-05-31T16:50:28.878+0000"
    }
  },
  {
    "_id": {
      "$oid": "5b1028001f2b611ae420776d"
    },
    "id": 30,
    "questionMessage": "Trường có bao nhiêu khoa?",
    "answerMessage": "<p>Có 13 khoa và 1 viện.</p>",
    "questionProcessed": "Trường có bao nhiêu khoa ",
    "answerProcessed": "Có 13 khoa và 1 viện ",
    "timeDate": {
      "$date": "2018-05-31T16:51:12.301+0000"
    }
  },
  {
    "_id": {
      "$oid": "5b1028021f2b611ae420776f"
    },
    "id": 31,
    "questionMessage": "Trường có bao nhiêu khoa và viện?",
    "answerMessage": "<p>Có 13 khoa và 1 viện.</p>",
    "questionProcessed": "Trường có bao nhiêu khoa và viện ",
    "answerProcessed": "Có 13 khoa và 1 viện ",
    "timeDate": {
      "$date": "2018-05-31T16:51:14.418+0000"
    }
  },
  {
    "_id": {
      "$oid": "5b1028071f2b611ae4207771"
    },
    "id": 32,
    "questionMessage": "Trường có những khoa nào?",
    "answerMessage": "<p>Có 13 khoa và 1 viện.</p>",
    "questionProcessed": "Trường có những khoa nào ",
    "answerProcessed": "Có 13 khoa và 1 viện ",
    "timeDate": {
      "$date": "2018-05-31T16:51:19.668+0000"
    }
  },
  {
    "_id": {
      "$oid": "5b10280d1f2b611ae4207773"
    },
    "id": 33,
    "questionMessage": "Đại học Sư phạm Kỹ Thuật có những khoa nào?",
    "answerMessage": "<p>Có 13 khoa và 1 viện.</p>",
    "questionProcessed": "Đại_học Sư phạm Kỹ_Thuật có những khoa nào ",
    "answerProcessed": "Có 13 khoa và 1 viện ",
    "timeDate": {
      "$date": "2018-05-31T16:51:25.059+0000"
    }
  },
  {
    "_id": {
      "$oid": "5b1028121f2b611ae4207775"
    },
    "id": 34,
    "questionMessage": "Trường đào tạo những khoa nào?",
    "answerMessage": "<p>Có 13 khoa và 1 viện.</p>",
    "questionProcessed": "Trường đào tạo những khoa nào ",
    "answerProcessed": "Có 13 khoa và 1 viện ",
    "timeDate": {
      "$date": "2018-05-31T16:51:30.145+0000"
    }
  },
  {
    "_id": {
      "$oid": "5b1028161f2b611ae4207777"
    },
    "id": 35,
    "questionMessage": "Có tất cả bao nhiêu khoa?",
    "answerMessage": "<p>Có 13 khoa và 1 viện.</p>",
    "questionProcessed": "Có tất cả bao nhiêu khoa ",
    "answerProcessed": "Có 13 khoa và 1 viện ",
    "timeDate": {
      "$date": "2018-05-31T16:51:34.415+0000"
    }
  },
  {
    "_id": {
      "$oid": "5b1028421f2b611ae4207779"
    },
    "id": 36,
    "questionMessage": "Cơ hội việc làm sau đại học?",
    "answerMessage": "<p>hơn 95% có việc làm.</p>",
    "questionProcessed": "Cơ_hội việc làm sau đại_học ",
    "answerProcessed": "hơn 95 % có việc làm ",
    "timeDate": {
      "$date": "2018-05-31T16:52:18.916+0000"
    }
  },
  {
    "_id": {
      "$oid": "5b1028471f2b611ae420777b"
    },
    "id": 37,
    "questionMessage": "Cơ hội việc làm sau khi tốt nghiệp?",
    "answerMessage": "<p>hơn 95% có việc làm.</p>",
    "questionProcessed": "Cơ_hội việc làm sau khi tốt nghiệp ",
    "answerProcessed": "hơn 95 % có việc làm ",
    "timeDate": {
      "$date": "2018-05-31T16:52:23.483+0000"
    }
  },
  {
    "_id": {
      "$oid": "5b1028531f2b611ae420777d"
    },
    "id": 38,
    "questionMessage": "Sau khi tốt nghiệp sinh viên có việc làm không?",
    "answerMessage": "<p>hơn 95% có việc làm.</p>",
    "questionProcessed": "Sau khi tốt nghiệp sinh viên có việc làm không ",
    "answerProcessed": "hơn 95 % có việc làm ",
    "timeDate": {
      "$date": "2018-05-31T16:52:35.979+0000"
    }
  },
  {
    "_id": {
      "$oid": "5b10285c1f2b611ae420777f"
    },
    "id": 39,
    "questionMessage": "Tỉ lệ sinh viên có việc làm?",
    "answerMessage": "<table border=\"1\" cellpadding=\"0\" cellspacing=\"0\"><tbody><tr><td valign=\"top\" width=\"312\"><p>hơn 95% có việc làm.</p></td></tr></tbody></table>",
    "questionProcessed": "Tỉ_lệ sinh viên có việc làm ",
    "answerProcessed": "hơn 95 % có việc làm ",
    "timeDate": {
      "$date": "2018-05-31T16:52:44.722+0000"
    }
  },
  {
    "_id": {
      "$oid": "5b1028a91f2b611ae4207783"
    },
    "id": 41,
    "questionMessage": "Dễ kiếm việc làm sau tốt nghiệp không?",
    "answerMessage": "<p>hơn 95% có việc làm.</p>",
    "questionProcessed": "Dễ kiếm việc làm sau tốt nghiệp không ",
    "answerProcessed": "hơn 95 % có việc làm ",
    "timeDate": {
      "$date": "2018-05-31T16:54:01.385+0000"
    }
  },
  {
    "_id": {
      "$oid": "5b1028e91f2b611ae4207785"
    },
    "id": 42,
    "questionMessage": "Khoa Công nghệ thông tin có bao nhiêu ngành?",
    "answerMessage": "<p>có 3 chuyên ngành : Công nghệ phần mềm, Hệ thống thông tin, Mạng máy tính.</p>",
    "questionProcessed": "Khoa Công_nghệ_thông tin có bao nhiêu ngành ",
    "answerProcessed": "có 3 chuyên ngành  Công_nghệ phần mềm  Hệ thống thông tin  Mạng_máy tính ",
    "timeDate": {
      "$date": "2018-05-31T16:55:05.051+0000"
    }
  },
  {
    "_id": {
      "$oid": "5b1028ef1f2b611ae4207787"
    },
    "id": 43,
    "questionMessage": "Có bao nhiêu ngành Khoa Công nghệ thông tin?",
    "answerMessage": "<p>có 3 chuyên ngành : Công nghệ phần mềm, Hệ thống thông tin, Mạng máy tính.</p>",
    "questionProcessed": "Có bao nhiêu ngành Khoa Công_nghệ_thông tin ",
    "answerProcessed": "có 3 chuyên ngành  Công_nghệ phần mềm  Hệ thống thông tin  Mạng_máy tính ",
    "timeDate": {
      "$date": "2018-05-31T16:55:11.249+0000"
    }
  },
  {
    "_id": {
      "$oid": "5b1029271f2b611ae4207789"
    },
    "id": 44,
    "questionMessage": "Khoa Công nghệ thông tin đào tạo ngành gì?",
    "answerMessage": "<p>có 3 chuyên ngành : Công nghệ phần mềm, Hệ thống thông tin, Mạng máy tính.</p>",
    "questionProcessed": "Khoa công nghệ_thông tin đào tạo ngành gì ",
    "answerProcessed": "có 3 chuyên ngành  Công_nghệ phần mềm  Hệ thống thông tin  Mạng_máy tính ",
    "timeDate": {
      "$date": "2018-05-31T16:56:07.622+0000"
    }
  },
  {
    "_id": {
      "$oid": "5b1029371f2b611ae420778b"
    },
    "id": 45,
    "questionMessage": "Ngành nào khoa Công nghệ thông tin đào tạo?",
    "answerMessage": "<p>có 3 chuyên ngành : Công nghệ phần mềm, Hệ thống thông tin, Mạng máy tính.</p>",
    "questionProcessed": "Ngành nào khoa Công_nghệ_thông tin đào tạo ",
    "answerProcessed": "có 3 chuyên ngành  Công_nghệ phần mềm  Hệ thống thông tin  Mạng_máy tính ",
    "timeDate": {
      "$date": "2018-05-31T16:56:23.271+0000"
    }
  },
  {
    "_id": {
      "$oid": "5b1029461f2b611ae420778d"
    },
    "id": 46,
    "questionMessage": "Ngành nào giảng dạy ở khoa Công nghệ thông tin?",
    "answerMessage": "<p>có 3 chuyên ngành : Công nghệ phần mềm, Hệ thống thông tin, Mạng máy tính.</p>",
    "questionProcessed": "Ngành nào giảng dạy ở khoa Công_nghệ_thông tin ",
    "answerProcessed": "có 3 chuyên ngành  Công_nghệ phần mềm  Hệ thống thông tin  Mạng_máy tính ",
    "timeDate": {
      "$date": "2018-05-31T16:56:38.518+0000"
    }
  },
  {
    "_id": {
      "$oid": "5b10294d1f2b611ae420778f"
    },
    "id": 47,
    "questionMessage": "Khoa Công nghệ thông tin giảng dạy bao nhiêu ngành?",
    "answerMessage": "<p>có 3 chuyên ngành : Công nghệ phần mềm, Hệ thống thông tin, Mạng máy tính.</p>",
    "questionProcessed": "Khoa Công_nghệ_thông tin giảng dạy bao nhiêu ngành ",
    "answerProcessed": "có 3 chuyên ngành  Công_nghệ phần mềm  Hệ thống thông tin  Mạng_máy tính ",
    "timeDate": {
      "$date": "2018-05-31T16:56:45.421+0000"
    }
  },
  {
    "_id": {
      "$oid": "5b10295a1f2b611ae4207791"
    },
    "id": 48,
    "questionMessage": "Ngành nào đào tạo khoa Công nghệ thông tin?",
    "answerMessage": "<p>có 3 chuyên ngành : Công nghệ phần mềm, Hệ thống thông tin, Mạng máy tính.</p>",
    "questionProcessed": "Ngành nào đào tạo khoa Công_nghệ_thông tin ",
    "answerProcessed": "có 3 chuyên ngành  Công_nghệ phần mềm  Hệ thống thông tin  Mạng_máy tính ",
    "timeDate": {
      "$date": "2018-05-31T16:56:58.681+0000"
    }
  },
  {
    "_id": {
      "$oid": "5b1029611f2b611ae4207793"
    },
    "id": 49,
    "questionMessage": "Ngành mũi nhọn của khoa Công nghệ thông tin?",
    "answerMessage": "<p>có 3 chuyên ngành : Công nghệ phần mềm, Hệ thống thông tin, Mạng máy tính.</p>",
    "questionProcessed": "Ngành mũi nhọn của khoa Công_nghệ_thông tin ",
    "answerProcessed": "có 3 chuyên ngành  Công_nghệ phần mềm  Hệ thống thông tin  Mạng_máy tính ",
    "timeDate": {
      "$date": "2018-05-31T16:57:05.398+0000"
    }
  },
  {
    "_id": {
      "$oid": "5b1029b71f2b611ae4207795"
    },
    "id": 50,
    "questionMessage": "Học Công nghệ thông tin để làm gì?",
    "answerMessage": "<p>Có kiến thức chuyên môn vững chắc. Có khả năng phân tích, đề xuất và hiện thực các giải pháp để giải quyết các vấn đề. Có kỹ năng giao tiếp và làm việc nhóm hiệu quả. Có đầy đủ kiến thức và kỹ năng để có thể nghiên cứu và học tập suốt đời.</p>",
    "questionProcessed": "Học Công_nghệ_thông tin để làm gì ",
    "answerProcessed": "Có kiến thức_chuyên môn vững chắc  Có khả_năng phân_tích  đề xuất và hiện thực các giải pháp để giải quyết các vấn đề  Có kỹ năng giao tiếp và làm việc nhóm hiệu quả  Có đầy đủ kiến thức và kỹ năng để có thể nghiên cứu và học_tập suốt đời ",
    "timeDate": {
      "$date": "2018-05-31T16:58:31.644+0000"
    }
  },
  {
    "_id": {
      "$oid": "5b1029b91f2b611ae4207797"
    },
    "id": 51,
    "questionMessage": "Những kỹ năng mà sinh viên Công nghệ thông tin sẽ có được là gì?",
    "answerMessage": "<p>Có kiến thức chuyên môn vững chắc. Có khả năng phân tích, đề xuất và hiện thực các giải pháp để giải quyết các vấn đề. Có kỹ năng giao tiếp và làm việc nhóm hiệu quả. Có đầy đủ kiến thức và kỹ năng để có thể nghiên cứu và học tập suốt đời.</p>",
    "questionProcessed": "Những kỹ năng mà sinh viên Công_nghệ_thông tin sẽ có được là gì ",
    "answerProcessed": "Có kiến thức_chuyên môn vững chắc  Có khả_năng phân_tích  đề xuất và hiện thực các giải pháp để giải quyết các vấn đề  Có kỹ năng giao tiếp và làm việc nhóm hiệu quả  Có đầy đủ kiến thức và kỹ năng để có thể nghiên cứu và học_tập suốt đời ",
    "timeDate": {
      "$date": "2018-05-31T16:58:33.499+0000"
    }
  },
  {
    "_id": {
      "$oid": "5b1029ba1f2b611ae4207799"
    },
    "id": 52,
    "questionMessage": "Sinh viên Công nghệ thông tin sẽ được trang bị những kỹ năng gì?",
    "answerMessage": "<p>Có kiến thức chuyên môn vững chắc. Có khả năng phân tích, đề xuất và hiện thực các giải pháp để giải quyết các vấn đề. Có kỹ năng giao tiếp và làm việc nhóm hiệu quả. Có đầy đủ kiến thức và kỹ năng để có thể nghiên cứu và học tập suốt đời.</p>",
    "questionProcessed": "Sinh_viên Công_nghệ_thông tin sẽ được trang bị những kỹ năng gì ",
    "answerProcessed": "Có kiến thức_chuyên môn vững chắc  Có khả_năng phân_tích  đề xuất và hiện thực các giải pháp để giải quyết các vấn đề  Có kỹ năng giao tiếp và làm việc nhóm hiệu quả  Có đầy đủ kiến thức và kỹ năng để có thể nghiên cứu và học_tập suốt đời ",
    "timeDate": {
      "$date": "2018-05-31T16:58:34.464+0000"
    }
  },
  {
    "_id": {
      "$oid": "5b1029bb1f2b611ae420779b"
    },
    "id": 53,
    "questionMessage": "Sinh viên Công nghệ thông tin sẽ học được những gì sau khi ra trường?",
    "answerMessage": "<p>Có kiến thức chuyên môn vững chắc. Có khả năng phân tích, đề xuất và hiện thực các giải pháp để giải quyết các vấn đề. Có kỹ năng giao tiếp và làm việc nhóm hiệu quả. Có đầy đủ kiến thức và kỹ năng để có thể nghiên cứu và học tập suốt đời.</p>",
    "questionProcessed": "Sinh_viên Công_nghệ_thông tin sẽ học được những gì sau khi ra trường ",
    "answerProcessed": "Có kiến thức_chuyên môn vững chắc  Có khả_năng phân_tích  đề xuất và hiện thực các giải pháp để giải quyết các vấn đề  Có kỹ năng giao tiếp và làm việc nhóm hiệu quả  Có đầy đủ kiến thức và kỹ năng để có thể nghiên cứu và học_tập suốt đời ",
    "timeDate": {
      "$date": "2018-05-31T16:58:35.940+0000"
    }
  },
  {
    "_id": {
      "$oid": "5b1029bd1f2b611ae420779d"
    },
    "id": 54,
    "questionMessage": "Học Công nghệ thông tin có lợi ích gì?",
    "answerMessage": "<p>C&oacute; kiến thức chuy&ecirc;n m&ocirc;n vững chắc. C&oacute; khả năng ph&acirc;n t&iacute;ch, đề xuất v&agrave; hiện thực c&aacute;c giải ph&aacute;p để giải quyết c&aacute;c vấn đề. C&oacute; kỹ năng giao tiếp v&agrave; l&agrave;m việc nh&oacute;m hiệu quả. C&oacute; đầy đủ kiến thức v&agrave; kỹ năng để c&oacute; thể nghi&ecirc;n cứu v&agrave; học tập suốt đời.</p>",
    "questionProcessed": "Học Công_nghệ_thông tin có lợi ích gì",
    "answerProcessed": "Có kiến thức_chuyên môn vững chắc  Có khả_năng phân_tích  đề xuất và hiện thực các giải pháp để giải quyết các vấn đề  Có kỹ năng giao tiếp và làm việc nhóm hiệu quả  Có đầy đủ kiến thức và kỹ năng để có thể nghiên cứu và học_tập suốt đời",
    "timeDate": {
      "$date": "2018-05-31T16:58:37.370+0000"
    }
  },
  {
    "_id": {
      "$oid": "5b1029be1f2b611ae420779f"
    },
    "id": 55,
    "questionMessage": "Sinh viên Công nghệ thông tin sẽ học được những kỹ năng gì?",
    "answerMessage": "<p>Có kiến thức chuyên môn vững chắc. Có khả năng phân tích, đề xuất và hiện thực các giải pháp để giải quyết các vấn đề. Có kỹ năng giao tiếp và làm việc nhóm hiệu quả. Có đầy đủ kiến thức và kỹ năng để có thể nghiên cứu và học tập suốt đời.</p>",
    "questionProcessed": "Sinh_viên Công_nghệ_thông tin sẽ học được những kỹ năng gì ",
    "answerProcessed": "Có kiến thức_chuyên môn vững chắc  Có khả_năng phân_tích  đề xuất và hiện thực các giải pháp để giải quyết các vấn đề  Có kỹ năng giao tiếp và làm việc nhóm hiệu quả  Có đầy đủ kiến thức và kỹ năng để có thể nghiên cứu và học_tập suốt đời ",
    "timeDate": {
      "$date": "2018-05-31T16:58:38.494+0000"
    }
  },
  {
    "_id": {
      "$oid": "5b1029e41f2b611ae42077a1"
    },
    "id": 56,
    "questionMessage": "Học Công nghệ thông tin sẽ học môn gì?",
    "answerMessage": "<p>Cấu trúc dữ liệu và giải thuật, Phương pháp lập trình hướng đối tượng, Công nghệ Phần mềm, Mạng máy tính, Cơ sở dữ liệu, Kiểm thử phần mềm và các kiến thức chuyên sâu khác cần thiết cho người kỹ sư công nghệ thông tin.</p>",
    "questionProcessed": "Học Công_nghệ_thông tin sẽ học môn gì ",
    "answerProcessed": "Cấu trúc dữ liệu và giải_thuật  Phương pháp lập trình hướng đối_tượng  Công_nghệ Phần_mềm  Mạng_máy tính  Cơ_sở dữ liệu  Kiểm_thử phần mềm và các kiến thức chuyên sâu khác cần_thiết cho người kỹ sư công nghệ_thông tin ",
    "timeDate": {
      "$date": "2018-05-31T16:59:16.908+0000"
    }
  },
  {
    "_id": {
      "$oid": "5b1029ea1f2b611ae42077a3"
    },
    "id": 57,
    "questionMessage": "Sinh viên Công nghệ thông tin sẽ được học những môn nào?",
    "answerMessage": "<p>Cấu trúc dữ liệu và giải thuật, Phương pháp lập trình hướng đối tượng, Công nghệ Phần mềm, Mạng máy tính, Cơ sở dữ liệu, Kiểm thử phần mềm và các kiến thức chuyên sâu khác cần thiết cho người kỹ sư công nghệ thông tin.</p>",
    "questionProcessed": "Sinh_viên Công_nghệ_thông tin sẽ được học những môn nào ",
    "answerProcessed": "Cấu trúc dữ liệu và giải_thuật  Phương pháp lập trình hướng đối_tượng  Công_nghệ Phần_mềm  Mạng_máy tính  Cơ_sở dữ liệu  Kiểm_thử phần mềm và các kiến thức chuyên sâu khác cần_thiết cho người kỹ sư công nghệ_thông tin ",
    "timeDate": {
      "$date": "2018-05-31T16:59:22.593+0000"
    }
  },
  {
    "_id": {
      "$oid": "5b1029f01f2b611ae42077a5"
    },
    "id": 58,
    "questionMessage": "Sinh viên Công nghệ thông tin sẽ được trang bị những kiến thức gì?",
    "answerMessage": "<p>Cấu trúc dữ liệu và giải thuật, Phương pháp lập trình hướng đối tượng, Công nghệ Phần mềm, Mạng máy tính, Cơ sở dữ liệu, Kiểm thử phần mềm và các kiến thức chuyên sâu khác cần thiết cho người kỹ sư công nghệ thông tin.</p>",
    "questionProcessed": "Sinh_viên Công_nghệ_thông tin sẽ được trang bị những kiến thức gì ",
    "answerProcessed": "Cấu trúc dữ liệu và giải_thuật  Phương pháp lập trình hướng đối_tượng  Công_nghệ Phần_mềm  Mạng_máy tính  Cơ_sở dữ liệu  Kiểm_thử phần mềm và các kiến thức chuyên sâu khác cần_thiết cho người kỹ sư công nghệ_thông tin ",
    "timeDate": {
      "$date": "2018-05-31T16:59:28.033+0000"
    }
  },
  {
    "_id": {
      "$oid": "5b1029f71f2b611ae42077a7"
    },
    "id": 59,
    "questionMessage": "Học Công nghệ thông tin sẽ được học môn nào?",
    "answerMessage": "<p>Cấu trúc dữ liệu và giải thuật, Phương pháp lập trình hướng đối tượng, Công nghệ Phần mềm, Mạng máy tính, Cơ sở dữ liệu, Kiểm thử phần mềm và các kiến thức chuyên sâu khác cần thiết cho người kỹ sư công nghệ thông tin.</p>",
    "questionProcessed": "Học Công_nghệ_thông tin sẽ được học_môn nào ",
    "answerProcessed": "Cấu trúc dữ liệu và giải_thuật  Phương pháp lập trình hướng đối_tượng  Công_nghệ Phần_mềm  Mạng_máy tính  Cơ_sở dữ liệu  Kiểm_thử phần mềm và các kiến thức chuyên sâu khác cần_thiết cho người kỹ sư công nghệ_thông tin ",
    "timeDate": {
      "$date": "2018-05-31T16:59:35.086+0000"
    }
  },
  {
    "_id": {
      "$oid": "5b102a001f2b611ae42077a9"
    },
    "id": 60,
    "questionMessage": "Học ngành Công nghệ thông tin sẽ được học những môn gì?",
    "answerMessage": "<p>Cấu trúc dữ liệu và giải thuật, Phương pháp lập trình hướng đối tượng, Công nghệ Phần mềm, Mạng máy tính, Cơ sở dữ liệu, Kiểm thử phần mềm và các kiến thức chuyên sâu khác cần thiết cho người kỹ sư công nghệ thông tin.</p>",
    "questionProcessed": "Học ngành Công_nghệ_thông tin sẽ được học những môn gì ",
    "answerProcessed": "Cấu trúc dữ liệu và giải_thuật  Phương pháp lập trình hướng đối_tượng  Công_nghệ Phần_mềm  Mạng_máy tính  Cơ_sở dữ liệu  Kiểm_thử phần mềm và các kiến thức chuyên sâu khác cần_thiết cho người kỹ sư công nghệ_thông tin ",
    "timeDate": {
      "$date": "2018-05-31T16:59:44.401+0000"
    }
  },
  {
    "_id": {
      "$oid": "5b102a641f2b611ae42077ab"
    },
    "id": 61,
    "questionMessage": "Ngành Công nghệ thông tin ra trường làm gì?",
    "answerMessage": "<p>Các công ty phần mềm, các công ty cung cấp giải pháp mạng, các công ty cung cấp giải pháp hệ thống thông tin trong nước cũng như quốc tế, v.v…</p>",
    "questionProcessed": "Ngành Công_nghệ_thông tin ra trường làm gì ",
    "answerProcessed": "Các công_ty phần mềm  các công ty cung cấp giải pháp mạng  các công ty cung cấp giải pháp hệ thống thông tin trong nước cũng như quốc_tế  vv …",
    "timeDate": {
      "$date": "2018-05-31T17:01:24.151+0000"
    }
  },
  {
    "_id": {
      "$oid": "5b102a651f2b611ae42077ad"
    },
    "id": 62,
    "questionMessage": "Học công nghệ thông tin sẽ làm gì?",
    "answerMessage": "<p>Các công ty phần mềm, các công ty cung cấp giải pháp mạng, các công ty cung cấp giải pháp hệ thống thông tin trong nước cũng như quốc tế, v.v…</p>",
    "questionProcessed": "Học công nghệ_thông tin sẽ làm gì ",
    "answerProcessed": "Các công_ty phần mềm  các công ty cung cấp giải pháp mạng  các công ty cung cấp giải pháp hệ thống thông tin trong nước cũng như quốc_tế  vv …",
    "timeDate": {
      "$date": "2018-05-31T17:01:25.342+0000"
    }
  },
  {
    "_id": {
      "$oid": "5b102a661f2b611ae42077af"
    },
    "id": 63,
    "questionMessage": "Học Công nghệ thông tin ra trường làm gì?",
    "answerMessage": "<p>Các công ty phần mềm, các công ty cung cấp giải pháp mạng, các công ty cung cấp giải pháp hệ thống thông tin trong nước cũng như quốc tế, v.v…</p>",
    "questionProcessed": "Học Công_nghệ_thông tin ra trường làm gì ",
    "answerProcessed": "Các công_ty phần mềm  các công ty cung cấp giải pháp mạng  các công ty cung cấp giải pháp hệ thống thông tin trong nước cũng như quốc_tế  vv …",
    "timeDate": {
      "$date": "2018-05-31T17:01:26.933+0000"
    }
  },
  {
    "_id": {
      "$oid": "5b102a681f2b611ae42077b1"
    },
    "id": 64,
    "questionMessage": "Học Công nghệ thông tin có thể làm việc ở đâu sau khi ra trường?",
    "answerMessage": "<p>Các công ty phần mềm, các công ty cung cấp giải pháp mạng, các công ty cung cấp giải pháp hệ thống thông tin trong nước cũng như quốc tế, v.v…</p>",
    "questionProcessed": "Học Công_nghệ_thông tin có thể làm việc ở đâu sau khi ra trường ",
    "answerProcessed": "Các công_ty phần mềm  các công ty cung cấp giải pháp mạng  các công ty cung cấp giải pháp hệ thống thông tin trong nước cũng như quốc_tế  vv …",
    "timeDate": {
      "$date": "2018-05-31T17:01:28.545+0000"
    }
  },
  {
    "_id": {
      "$oid": "5b102a6a1f2b611ae42077b3"
    },
    "id": 65,
    "questionMessage": "Học Công nghệ thông tin ra trường làm ở đâu?",
    "answerMessage": "<p>Các công ty phần mềm, các công ty cung cấp giải pháp mạng, các công ty cung cấp giải pháp hệ thống thông tin trong nước cũng như quốc tế, v.v…</p>",
    "questionProcessed": "Học Công_nghệ_thông tin ra trường làm ở đâu ",
    "answerProcessed": "Các công_ty phần mềm  các công ty cung cấp giải pháp mạng  các công ty cung cấp giải pháp hệ thống thông tin trong nước cũng như quốc_tế  vv …",
    "timeDate": {
      "$date": "2018-05-31T17:01:30.480+0000"
    }
  },
  {
    "_id": {
      "$oid": "5b102aa41f2b611ae42077b5"
    },
    "id": 66,
    "questionMessage": "Điểm đầu vào ngành Công nghệ thông tin năm 2017?",
    "answerMessage": "<p>Năm 2017 là 25 điểm</p>",
    "questionProcessed": "Điểm đầu vào ngành Công_nghệ_thông tin năm 2017 ",
    "answerProcessed": "Năm 2017 là 25 điểm",
    "timeDate": {
      "$date": "2018-05-31T17:02:28.348+0000"
    }
  },
  {
    "_id": {
      "$oid": "5b102aa91f2b611ae42077b7"
    },
    "id": 67,
    "questionMessage": "Điểm đầu vào ngành Công nghệ thông tin năm 2016-2017?",
    "answerMessage": "<p>Năm 2017 là 25 điểm</p>",
    "questionProcessed": "Điểm đầu vào ngành Công_nghệ_thông tin năm 20162017 ",
    "answerProcessed": "Năm 2017 là 25 điểm",
    "timeDate": {
      "$date": "2018-05-31T17:02:33.667+0000"
    }
  },
  {
    "_id": {
      "$oid": "5b102aaf1f2b611ae42077b9"
    },
    "id": 68,
    "questionMessage": "Điểm đầu vào ngành Công nghệ thông tin năm ngoái?",
    "answerMessage": "<p>Năm 2017 là 25 điểm</p>",
    "questionProcessed": "Điểm đầu vào ngành Công_nghệ_thông tin năm ngoái ",
    "answerProcessed": "Năm 2017 là 25 điểm",
    "timeDate": {
      "$date": "2018-05-31T17:02:39.787+0000"
    }
  },
  {
    "_id": {
      "$oid": "5b102ab51f2b611ae42077bb"
    },
    "id": 69,
    "questionMessage": "Điểm đầu vào ngành Công nghệ thông tin năm trước?",
    "answerMessage": "<p>Năm 2017 là 25 điểm</p>",
    "questionProcessed": "Điểm đầu vào ngành Công_nghệ_thông tin năm trước ",
    "answerProcessed": "Năm 2017 là 25 điểm",
    "timeDate": {
      "$date": "2018-05-31T17:02:45.638+0000"
    }
  },
  {
    "_id": {
      "$oid": "5b102abb1f2b611ae42077bd"
    },
    "id": 70,
    "questionMessage": "Điểm thi vào ngành công nghệ thông tin?",
    "answerMessage": "<p>Năm 2017 là 25 điểm</p>",
    "questionProcessed": "Điểm thi vào ngành công nghệ_thông tin ",
    "answerProcessed": "Năm 2017 là 25 điểm",
    "timeDate": {
      "$date": "2018-05-31T17:02:51.237+0000"
    }
  },
  {
    "_id": {
      "$oid": "5b102abf1f2b611ae42077bf"
    },
    "id": 71,
    "questionMessage": "Ngành Công nghệ thông tin đại trà bao nhiêu điểm?",
    "answerMessage": "<p>Năm 2017 là 25 điểm</p>",
    "questionProcessed": "Ngành Công_nghệ_thông tin đại trà bao nhiêu điểm ",
    "answerProcessed": "Năm 2017 là 25 điểm",
    "timeDate": {
      "$date": "2018-05-31T17:02:55.963+0000"
    }
  },
  {
    "_id": {
      "$oid": "5b102ac51f2b611ae42077c1"
    },
    "id": 72,
    "questionMessage": "Ngành Công nghệ thông tin năm 2017 hệ đại trà bao nhiêu điểm?",
    "answerMessage": "<p>Năm 2017 là 25 điểm</p>",
    "questionProcessed": "Ngành Công_nghệ_thông tin năm 2017 hệ đại trà bao nhiêu điểm ",
    "answerProcessed": "Năm 2017 là 25 điểm",
    "timeDate": {
      "$date": "2018-05-31T17:03:01.755+0000"
    }
  },
  {
    "_id": {
      "$oid": "5b102aca1f2b611ae42077c3"
    },
    "id": 73,
    "questionMessage": "Điểm thi vào ngành Công nghệ thông tin đại trà là bao nhiêu?",
    "answerMessage": "<p>Năm 2017 là 25 điểm</p>",
    "questionProcessed": "Điểm thi vào ngành Công_nghệ_thông tin đại trà là bao nhiêu ",
    "answerProcessed": "Năm 2017 là 25 điểm",
    "timeDate": {
      "$date": "2018-05-31T17:03:06.902+0000"
    }
  },
  {
    "_id": {
      "$oid": "5b102ad01f2b611ae42077c5"
    },
    "id": 74,
    "questionMessage": "Điểm thi vào ngành Công nghệ thông tin đại trà năm 2017 là bao nhiêu?",
    "answerMessage": "<p>Năm 2017 là 25 điểm</p>",
    "questionProcessed": "Điểm thi vào ngành Công_nghệ_thông tin đại trà năm 2017 là bao nhiêu ",
    "answerProcessed": "Năm 2017 là 25 điểm",
    "timeDate": {
      "$date": "2018-05-31T17:03:12.882+0000"
    }
  },
  {
    "_id": {
      "$oid": "5b102ad61f2b611ae42077c7"
    },
    "id": 75,
    "questionMessage": "Điểm đậu ngành Công nghệ thông tin?",
    "answerMessage": "<p>Năm 2017 là 25 điểm</p>",
    "questionProcessed": "Điểm đậu ngành Công_nghệ_thông tin ",
    "answerProcessed": "Năm 2017 là 25 điểm",
    "timeDate": {
      "$date": "2018-05-31T17:03:18.335+0000"
    }
  },
  {
    "_id": {
      "$oid": "5b102adb1f2b611ae42077c9"
    },
    "id": 76,
    "questionMessage": "Điểm đậu ngành Công nghệ thông tin năm 2017?",
    "answerMessage": "<p>Năm 2017 là 25 điểm</p>",
    "questionProcessed": "Điểm đậu ngành Công_nghệ_thông tin năm 2017 ",
    "answerProcessed": "Năm 2017 là 25 điểm",
    "timeDate": {
      "$date": "2018-05-31T17:03:23.631+0000"
    }
  },
  {
    "_id": {
      "$oid": "5b102ae91f2b611ae42077cb"
    },
    "id": 77,
    "questionMessage": "Khối A năm 2017 ngành Công nghệ thông tin bao nhiêu điểm đầu vào?",
    "answerMessage": "<p>Năm 2017 là 25 điểm</p>",
    "questionProcessed": "Khối A năm 2017 ngành Công_nghệ_thông tin bao nhiêu điểm đầu vào ",
    "answerProcessed": "Năm 2017 là 25 điểm",
    "timeDate": {
      "$date": "2018-05-31T17:03:37.969+0000"
    }
  },
  {
    "_id": {
      "$oid": "5b102aee1f2b611ae42077cd"
    },
    "id": 78,
    "questionMessage": "Khối A năm 2017 ngành Công nghệ thông tin bao nhiêu điểm đậu?",
    "answerMessage": "<p>Năm 2017 là 25 điểm</p>",
    "questionProcessed": "Khối A năm 2017 ngành Công_nghệ_thông tin bao nhiêu điểm đậu ",
    "answerProcessed": "Năm 2017 là 25 điểm",
    "timeDate": {
      "$date": "2018-05-31T17:03:42.723+0000"
    }
  },
  {
    "_id": {
      "$oid": "5b102af91f2b611ae42077cf"
    },
    "id": 79,
    "questionMessage": "Khối A năm trước ngành Công nghệ thông tin bao nhiêu điểm đầu vào?",
    "answerMessage": "<p>Năm 2017 là 25 điểm</p>",
    "questionProcessed": "Khối A năm trước ngành Công_nghệ_thông tin bao nhiêu điểm đầu vào ",
    "answerProcessed": "Năm 2017 là 25 điểm",
    "timeDate": {
      "$date": "2018-05-31T17:03:53.046+0000"
    }
  },
  {
    "_id": {
      "$oid": "5b102aff1f2b611ae42077d1"
    },
    "id": 80,
    "questionMessage": "Khối A năm trước ngành Công nghệ thông tin bao nhiêu điểm đậu?",
    "answerMessage": "<p>Năm 2017 là 25 điểm</p>",
    "questionProcessed": "Khối A năm trước ngành Công_nghệ_thông tin bao nhiêu điểm đậu ",
    "answerProcessed": "Năm 2017 là 25 điểm",
    "timeDate": {
      "$date": "2018-05-31T17:03:59.778+0000"
    }
  },
  {
    "_id": {
      "$oid": "5b102b211f2b611ae42077d3"
    },
    "id": 81,
    "questionMessage": "Mã ngành của ngành Công nghệ thông tin là gì?",
    "answerMessage": "<p>Mã ngành Công nghệ thông tin 7480201</p>",
    "questionProcessed": "Mã_ngành của ngành Công_nghệ_thông tin là gì ",
    "answerProcessed": "Mã ngành Công_nghệ_thông tin 7480201",
    "timeDate": {
      "$date": "2018-05-31T17:04:33.256+0000"
    }
  },
  {
    "_id": {
      "$oid": "5b102b261f2b611ae42077d5"
    },
    "id": 82,
    "questionMessage": "Ngành Công nghệ thông tin có mã ngành?",
    "answerMessage": "<p>Mã ngành Công nghệ thông tin 7480201</p>",
    "questionProcessed": "Ngành Công_nghệ_thông tin có mã ngành ",
    "answerProcessed": "Mã ngành Công_nghệ_thông tin 7480201",
    "timeDate": {
      "$date": "2018-05-31T17:04:38.089+0000"
    }
  },
  {
    "_id": {
      "$oid": "5b102b2b1f2b611ae42077d7"
    },
    "id": 83,
    "questionMessage": "Mã ngành ngành Công nghệ thông tin?",
    "answerMessage": "<p>Mã ngành Công nghệ thông tin 7480201</p>",
    "questionProcessed": "Mã ngành ngành Công_nghệ_thông tin ",
    "answerProcessed": "Mã ngành Công_nghệ_thông tin 7480201",
    "timeDate": {
      "$date": "2018-05-31T17:04:43.830+0000"
    }
  },
  {
    "_id": {
      "$oid": "5b102b331f2b611ae42077d9"
    },
    "id": 84,
    "questionMessage": "Ghi mã ngành Công nghệ thông tin?",
    "answerMessage": "<p>Mã ngành Công nghệ thông tin 7480201</p>",
    "questionProcessed": "Ghi mã ngành Công_nghệ_thông tin ",
    "answerProcessed": "Mã ngành Công_nghệ_thông tin 7480201",
    "timeDate": {
      "$date": "2018-05-31T17:04:51.412+0000"
    }
  },
  {
    "_id": {
      "$oid": "5b102b5b1f2b611ae42077db"
    },
    "id": 85,
    "questionMessage": "Điểm đầu vào ngành Công nghệ thông tin năm 2016?",
    "answerMessage": "<p>Năm 2016 là 22,5 điểm</p>",
    "questionProcessed": "Điểm đầu vào ngành Công_nghệ_thông tin năm 2016 ",
    "answerProcessed": "Năm 2016 là 225 điểm",
    "timeDate": {
      "$date": "2018-05-31T17:05:31.312+0000"
    }
  },
  {
    "_id": {
      "$oid": "5b102b6e1f2b611ae42077dd"
    },
    "id": 86,
    "questionMessage": "Điểm đầu vào ngành Công nghệ thông tin năm 2015-2016?",
    "answerMessage": "<table border=\"1\" cellpadding=\"0\" cellspacing=\"0\"><tbody><tr><td valign=\"top\" width=\"312\"><p>Năm 2016 là 22,5 điểm</p></td></tr></tbody></table>",
    "questionProcessed": "Điểm đầu vào ngành Công_nghệ_thông tin năm 20152016 ",
    "answerProcessed": "Năm 2016 là 225 điểm",
    "timeDate": {
      "$date": "2018-05-31T17:05:50.320+0000"
    }
  },
  {
    "_id": {
      "$oid": "5b102b721f2b611ae42077df"
    },
    "id": 87,
    "questionMessage": "Điểm thi vào ngành công nghệ thông tin năm 2016?",
    "answerMessage": "<table border=\"1\" cellpadding=\"0\" cellspacing=\"0\"><tbody><tr><td valign=\"top\" width=\"312\"><p>Năm 2016 là 22,5 điểm</p></td></tr></tbody></table>",
    "questionProcessed": "Điểm thi vào ngành công nghệ_thông tin năm 2016 ",
    "answerProcessed": "Năm 2016 là 225 điểm",
    "timeDate": {
      "$date": "2018-05-31T17:05:54.744+0000"
    }
  },
  {
    "_id": {
      "$oid": "5b102b771f2b611ae42077e1"
    },
    "id": 88,
    "questionMessage": "Ngành Công nghệ thông tin đại trà năm 2016 bao nhiêu điểm?",
    "answerMessage": "<table border=\"1\" cellpadding=\"0\" cellspacing=\"0\"><tbody><tr><td valign=\"top\" width=\"312\"><p>Năm 2016 là 22,5 điểm</p></td></tr></tbody></table>",
    "questionProcessed": "Ngành Công_nghệ_thông tin đại trà năm 2016 bao nhiêu điểm ",
    "answerProcessed": "Năm 2016 là 225 điểm",
    "timeDate": {
      "$date": "2018-05-31T17:05:59.193+0000"
    }
  },
  {
    "_id": {
      "$oid": "5b102b7e1f2b611ae42077e3"
    },
    "id": 89,
    "questionMessage": "Điểm thi vào ngành Công nghệ thông tin đại trà năm 2016 là bao nhiêu?",
    "answerMessage": "<table border=\"1\" cellpadding=\"0\" cellspacing=\"0\"><tbody><tr><td valign=\"top\" width=\"312\"><p>Năm 2016 là 22,5 điểm</p></td></tr></tbody></table>",
    "questionProcessed": "Điểm thi vào ngành Công_nghệ_thông tin đại trà năm 2016 là bao nhiêu ",
    "answerProcessed": "Năm 2016 là 225 điểm",
    "timeDate": {
      "$date": "2018-05-31T17:06:06.126+0000"
    }
  },
  {
    "_id": {
      "$oid": "5b102b881f2b611ae42077e5"
    },
    "id": 90,
    "questionMessage": "Điểm đậu ngành Công nghệ thông tin năm 2016?",
    "answerMessage": "<p>Năm 2016 là 22,5 điểm</p>",
    "questionProcessed": "Điểm đậu ngành Công_nghệ_thông tin năm 2016 ",
    "answerProcessed": "Năm 2016 là 225 điểm",
    "timeDate": {
      "$date": "2018-05-31T17:06:16.133+0000"
    }
  },
  {
    "_id": {
      "$oid": "5b102c071f2b611ae42077e7"
    },
    "id": 91,
    "questionMessage": "Khối A năm 2016 ngành Công nghệ thông tin bao nhiêu điểm đầu vào?",
    "answerMessage": "<table border=\"1\" cellpadding=\"0\" cellspacing=\"0\"><tbody><tr><td valign=\"top\" width=\"312\"><p>Năm 2016 là 22,5 điểm</p></td></tr></tbody></table>",
    "questionProcessed": "Khối A năm 2016 ngành Công_nghệ_thông tin bao nhiêu điểm đầu vào ",
    "answerProcessed": "Năm 2016 là 225 điểm",
    "timeDate": {
      "$date": "2018-05-31T17:08:23.433+0000"
    }
  },
  {
    "_id": {
      "$oid": "5b102c0c1f2b611ae42077e9"
    },
    "id": 92,
    "questionMessage": "Khối A năm 2016 ngành Công nghệ thông tin bao nhiêu điểm đậu?",
    "answerMessage": "<table border=\"1\" cellpadding=\"0\" cellspacing=\"0\"><tbody><tr><td valign=\"top\" width=\"312\"><p>Năm 2016 là 22,5 điểm</p></td></tr></tbody></table>",
    "questionProcessed": "Khối A năm 2016 ngành Công_nghệ_thông tin bao nhiêu điểm đậu ",
    "answerProcessed": "Năm 2016 là 225 điểm",
    "timeDate": {
      "$date": "2018-05-31T17:08:28.959+0000"
    }
  },
  {
    "_id": {
      "$oid": "5b102c251f2b611ae42077eb"
    },
    "id": 93,
    "questionMessage": "Khoa CNTT có bao nhiêu ngành?",
    "answerMessage": "<p>có 3 chuyên ngành</p>",
    "questionProcessed": "Khoa CNTT có bao nhiêu ngành ",
    "answerProcessed": "có 3 chuyên ngành",
    "timeDate": {
      "$date": "2018-05-31T17:08:53.339+0000"
    }
  },
  {
    "_id": {
      "$oid": "5b102c2a1f2b611ae42077ed"
    },
    "id": 94,
    "questionMessage": "Có bao nhiêu ngành Khoa CNTT?",
    "answerMessage": "<p>có 3 chuyên ngành</p>",
    "questionProcessed": "Có bao nhiêu ngành Khoa CNTT ",
    "answerProcessed": "có 3 chuyên ngành",
    "timeDate": {
      "$date": "2018-05-31T17:08:58.533+0000"
    }
  },
  {
    "_id": {
      "$oid": "5b102c341f2b611ae42077f1"
    },
    "id": 96,
    "questionMessage": "Hệ đại học của khoa CNTT có những ngành nào?",
    "answerMessage": "<p>có 3 chuyên ngành</p>",
    "questionProcessed": "Hệ_đại học của khoa CNTT có những ngành nào ",
    "answerProcessed": "có 3 chuyên ngành",
    "timeDate": {
      "$date": "2018-05-31T17:09:08.102+0000"
    }
  },
  {
    "_id": {
      "$oid": "5b102c3e1f2b611ae42077f3"
    },
    "id": 97,
    "questionMessage": "Khoa CNTT đào tạo ngành gì?",
    "answerMessage": "<p>có 3 chuyên ngành</p>",
    "questionProcessed": "Khoa CNTT đào tạo ngành gì ",
    "answerProcessed": "có 3 chuyên ngành",
    "timeDate": {
      "$date": "2018-05-31T17:09:18.170+0000"
    }
  },
  {
    "_id": {
      "$oid": "5b102c461f2b611ae42077f5"
    },
    "id": 98,
    "questionMessage": "Ngành nào khoa CNTT đào tạo?",
    "answerMessage": "<p>có 3 chuyên ngành</p>",
    "questionProcessed": "Ngành nào khoa CNTT đào tạo ",
    "answerProcessed": "có 3 chuyên ngành",
    "timeDate": {
      "$date": "2018-05-31T17:09:26.778+0000"
    }
  },
  {
    "_id": {
      "$oid": "5b102c501f2b611ae42077f7"
    },
    "id": 99,
    "questionMessage": "Ngành nào giảng dạy ở khoa CNTT?",
    "answerMessage": "<p>có 3 chuyên ngành</p>",
    "questionProcessed": "Ngành nào giảng dạy ở khoa CNTT ",
    "answerProcessed": "có 3 chuyên ngành",
    "timeDate": {
      "$date": "2018-05-31T17:09:36.569+0000"
    }
  },
  {
    "_id": {
      "$oid": "5b102c551f2b611ae42077f9"
    },
    "id": 100,
    "questionMessage": "Khoa CNTT giảng dạy bao nhiêu ngành?",
    "answerMessage": "<p>có 3 chuyên ngành</p>",
    "questionProcessed": "Khoa CNTT giảng dạy bao nhiêu ngành ",
    "answerProcessed": "có 3 chuyên ngành",
    "timeDate": {
      "$date": "2018-05-31T17:09:41.766+0000"
    }
  },
  {
    "_id": {
      "$oid": "5b102c5a1f2b611ae42077fb"
    },
    "id": 101,
    "questionMessage": "Ngành nào đào tạo khoa CNTT?",
    "answerMessage": "<p>có 3 chuyên ngành</p>",
    "questionProcessed": "Ngành nào đào tạo khoa CNTT ",
    "answerProcessed": "có 3 chuyên ngành",
    "timeDate": {
      "$date": "2018-05-31T17:09:46.478+0000"
    }
  },
  {
    "_id": {
      "$oid": "5b102c5e1f2b611ae42077fd"
    },
    "id": 102,
    "questionMessage": "Ngành mũi nhọn của khoa CNTT?",
    "answerMessage": "<p>có 3 chuyên ngành</p>",
    "questionProcessed": "Ngành mũi nhọn của khoa CNTT ",
    "answerProcessed": "có 3 chuyên ngành",
    "timeDate": {
      "$date": "2018-05-31T17:09:50.958+0000"
    }
  },
  {
    "_id": {
      "$oid": "5b102c961f2b611ae42077ff"
    },
    "id": 103,
    "questionMessage": "Sinh viên CNTT sẽ học được những kỹ năng gì?",
    "answerMessage": "<p>Có kiến thức chuyên môn vững chắc. Có khả năng phân tích, đề xuất và hiện thực các giải pháp để giải quyết các vấn đề. Có kỹ năng giao tiếp và làm việc nhóm hiệu quả. Có đầy đủ kiến thức và kỹ năng để có thể nghiên cứu và học tập suốt đời.</p>",
    "questionProcessed": "Sinh_viên CNTT sẽ học được những kỹ năng gì ",
    "answerProcessed": "Có kiến thức_chuyên môn vững chắc  Có khả_năng phân_tích  đề xuất và hiện thực các giải pháp để giải quyết các vấn đề  Có kỹ năng giao tiếp và làm việc nhóm hiệu quả  Có đầy đủ kiến thức và kỹ năng để có thể nghiên cứu và học_tập suốt đời ",
    "timeDate": {
      "$date": "2018-05-31T17:10:46.093+0000"
    }
  },
  {
    "_id": {
      "$oid": "5b102cb01f2b611ae4207801"
    },
    "id": 104,
    "questionMessage": "Học CNTT có lợi ích gì?",
    "answerMessage": "<p>Có kiến thức chuyên môn vững chắc. Có khả năng phân tích, đề xuất và hiện thực các giải pháp để giải quyết các vấn đề. Có kỹ năng giao tiếp và làm việc nhóm hiệu quả. Có đầy đủ kiến thức và kỹ năng để có thể nghiên cứu và học tập suốt đời.</p>",
    "questionProcessed": "Học CNTT có lợi ích gì ",
    "answerProcessed": "Có kiến thức_chuyên môn vững chắc  Có khả_năng phân_tích  đề xuất và hiện thực các giải pháp để giải quyết các vấn đề  Có kỹ năng giao tiếp và làm việc nhóm hiệu quả  Có đầy đủ kiến thức và kỹ năng để có thể nghiên cứu và học_tập suốt đời ",
    "timeDate": {
      "$date": "2018-05-31T17:11:12.594+0000"
    }
  },
  {
    "_id": {
      "$oid": "5b102cbe1f2b611ae4207803"
    },
    "id": 105,
    "questionMessage": "Sinh viên CNTT sẽ học được những gì sau khi ra trường?",
    "answerMessage": "<p>Có kiến thức chuyên môn vững chắc. Có khả năng phân tích, đề xuất và hiện thực các giải pháp để giải quyết các vấn đề. Có kỹ năng giao tiếp và làm việc nhóm hiệu quả. Có đầy đủ kiến thức và kỹ năng để có thể nghiên cứu và học tập suốt đời.</p>",
    "questionProcessed": "Sinh_viên CNTT sẽ học được những gì sau khi ra trường ",
    "answerProcessed": "Có kiến thức_chuyên môn vững chắc  Có khả_năng phân_tích  đề xuất và hiện thực các giải pháp để giải quyết các vấn đề  Có kỹ năng giao tiếp và làm việc nhóm hiệu quả  Có đầy đủ kiến thức và kỹ năng để có thể nghiên cứu và học_tập suốt đời ",
    "timeDate": {
      "$date": "2018-05-31T17:11:26.608+0000"
    }
  },
  {
    "_id": {
      "$oid": "5b102cc21f2b611ae4207805"
    },
    "id": 106,
    "questionMessage": "Sinh viên CNTT sẽ được trang bị những kỹ năng gì?",
    "answerMessage": "<p>Có kiến thức chuyên môn vững chắc. Có khả năng phân tích, đề xuất và hiện thực các giải pháp để giải quyết các vấn đề. Có kỹ năng giao tiếp và làm việc nhóm hiệu quả. Có đầy đủ kiến thức và kỹ năng để có thể nghiên cứu và học tập suốt đời.</p>",
    "questionProcessed": "Sinh_viên CNTT sẽ được trang bị những kỹ năng gì ",
    "answerProcessed": "Có kiến thức_chuyên môn vững chắc  Có khả_năng phân_tích  đề xuất và hiện thực các giải pháp để giải quyết các vấn đề  Có kỹ năng giao tiếp và làm việc nhóm hiệu quả  Có đầy đủ kiến thức và kỹ năng để có thể nghiên cứu và học_tập suốt đời ",
    "timeDate": {
      "$date": "2018-05-31T17:11:30.979+0000"
    }
  },
  {
    "_id": {
      "$oid": "5b102ccb1f2b611ae4207807"
    },
    "id": 107,
    "questionMessage": "Những kỹ năng mà sinh viên CNTT sẽ có được là gì?",
    "answerMessage": "<p>Có kiến thức chuyên môn vững chắc. Có khả năng phân tích, đề xuất và hiện thực các giải pháp để giải quyết các vấn đề. Có kỹ năng giao tiếp và làm việc nhóm hiệu quả. Có đầy đủ kiến thức và kỹ năng để có thể nghiên cứu và học tập suốt đời.</p>",
    "questionProcessed": "Những kỹ năng mà sinh viên CNTT sẽ có được là gì ",
    "answerProcessed": "Có kiến thức_chuyên môn vững chắc  Có khả_năng phân_tích  đề xuất và hiện thực các giải pháp để giải quyết các vấn đề  Có kỹ năng giao tiếp và làm việc nhóm hiệu quả  Có đầy đủ kiến thức và kỹ năng để có thể nghiên cứu và học_tập suốt đời ",
    "timeDate": {
      "$date": "2018-05-31T17:11:39.573+0000"
    }
  },
  {
    "_id": {
      "$oid": "5b102cd01f2b611ae4207809"
    },
    "id": 108,
    "questionMessage": "Học CNTT để làm gì?",
    "answerMessage": "<p>Có kiến thức chuyên môn vững chắc. Có khả năng phân tích, đề xuất và hiện thực các giải pháp để giải quyết các vấn đề. Có kỹ năng giao tiếp và làm việc nhóm hiệu quả. Có đầy đủ kiến thức và kỹ năng để có thể nghiên cứu và học tập suốt đời.</p>",
    "questionProcessed": "Học CNTT để làm gì ",
    "answerProcessed": "Có kiến thức_chuyên môn vững chắc  Có khả_năng phân_tích  đề xuất và hiện thực các giải pháp để giải quyết các vấn đề  Có kỹ năng giao tiếp và làm việc nhóm hiệu quả  Có đầy đủ kiến thức và kỹ năng để có thể nghiên cứu và học_tập suốt đời ",
    "timeDate": {
      "$date": "2018-05-31T17:11:44.115+0000"
    }
  },
  {
    "_id": {
      "$oid": "5b102dac1f2b611ae420781e"
    },
    "id": 109,
    "questionMessage": "Học ngành CNTT sẽ được học những môn gì?",
    "answerMessage": "<p>Cấu trúc dữ liệu và giải thuật, Phương pháp lập trình hướng đối tượng, Công nghệ Phần mềm, Mạng máy tính, Cơ sở dữ liệu, Kiểm thử phần mềm và các kiến thức chuyên sâu khác cần thiết cho người kỹ sư Công nghệ thông tin.</p>",
    "questionProcessed": "Học ngành CNTT sẽ được học những môn gì ",
    "answerProcessed": "Cấu trúc dữ liệu và giải_thuật  Phương pháp lập trình hướng đối_tượng  Công_nghệ Phần_mềm  Mạng_máy tính  Cơ_sở dữ liệu  Kiểm_thử phần mềm và các kiến thức chuyên sâu khác cần_thiết cho người kỹ sư Công_nghệ_thông tin ",
    "timeDate": {
      "$date": "2018-05-31T17:15:24.797+0000"
    }
  },
  {
    "_id": {
      "$oid": "5b102db01f2b611ae4207820"
    },
    "id": 110,
    "questionMessage": "Học CNTT sẽ học môn gì?",
    "answerMessage": "<p>Cấu trúc dữ liệu và giải thuật, Phương pháp lập trình hướng đối tượng, Công nghệ Phần mềm, Mạng máy tính, Cơ sở dữ liệu, Kiểm thử phần mềm và các kiến thức chuyên sâu khác cần thiết cho người kỹ sư Công nghệ thông tin.</p>",
    "questionProcessed": "Học CNTT sẽ học môn gì ",
    "answerProcessed": "Cấu trúc dữ liệu và giải_thuật  Phương pháp lập trình hướng đối_tượng  Công_nghệ Phần_mềm  Mạng_máy tính  Cơ_sở dữ liệu  Kiểm_thử phần mềm và các kiến thức chuyên sâu khác cần_thiết cho người kỹ sư Công_nghệ_thông tin ",
    "timeDate": {
      "$date": "2018-05-31T17:15:28.831+0000"
    }
  },
  {
    "_id": {
      "$oid": "5b102db51f2b611ae4207822"
    },
    "id": 111,
    "questionMessage": "Sinh viên CNTT sẽ được học những môn nào?",
    "answerMessage": "<p>Cấu trúc dữ liệu và giải thuật, Phương pháp lập trình hướng đối tượng, Công nghệ Phần mềm, Mạng máy tính, Cơ sở dữ liệu, Kiểm thử phần mềm và các kiến thức chuyên sâu khác cần thiết cho người kỹ sư Công nghệ thông tin.</p>",
    "questionProcessed": "Sinh_viên CNTT sẽ được học những môn nào ",
    "answerProcessed": "Cấu trúc dữ liệu và giải_thuật  Phương pháp lập trình hướng đối_tượng  Công_nghệ Phần_mềm  Mạng_máy tính  Cơ_sở dữ liệu  Kiểm_thử phần mềm và các kiến thức chuyên sâu khác cần_thiết cho người kỹ sư Công_nghệ_thông tin ",
    "timeDate": {
      "$date": "2018-05-31T17:15:33.034+0000"
    }
  },
  {
    "_id": {
      "$oid": "5b102dba1f2b611ae4207824"
    },
    "id": 112,
    "questionMessage": "Sinh viên CNTT sẽ được trang bị những kiến thức gì?",
    "answerMessage": "<p>Cấu trúc dữ liệu và giải thuật, Phương pháp lập trình hướng đối tượng, Công nghệ Phần mềm, Mạng máy tính, Cơ sở dữ liệu, Kiểm thử phần mềm và các kiến thức chuyên sâu khác cần thiết cho người kỹ sư Công nghệ thông tin.</p>",
    "questionProcessed": "Sinh_viên CNTT sẽ được trang bị những kiến thức gì ",
    "answerProcessed": "Cấu trúc dữ liệu và giải_thuật  Phương pháp lập trình hướng đối_tượng  Công_nghệ Phần_mềm  Mạng_máy tính  Cơ_sở dữ liệu  Kiểm_thử phần mềm và các kiến thức chuyên sâu khác cần_thiết cho người kỹ sư Công_nghệ_thông tin ",
    "timeDate": {
      "$date": "2018-05-31T17:15:38.577+0000"
    }
  },
  {
    "_id": {
      "$oid": "5b102dc11f2b611ae4207826"
    },
    "id": 113,
    "questionMessage": "Học CNTT sẽ được học môn nào?",
    "answerMessage": "<p>Cấu trúc dữ liệu và giải thuật, Phương pháp lập trình hướng đối tượng, Công nghệ Phần mềm, Mạng máy tính, Cơ sở dữ liệu, Kiểm thử phần mềm và các kiến thức chuyên sâu khác cần thiết cho người kỹ sư Công nghệ thông tin.</p>",
    "questionProcessed": "Học CNTT sẽ được học_môn nào ",
    "answerProcessed": "Cấu trúc dữ liệu và giải_thuật  Phương pháp lập trình hướng đối_tượng  Công_nghệ Phần_mềm  Mạng_máy tính  Cơ_sở dữ liệu  Kiểm_thử phần mềm và các kiến thức chuyên sâu khác cần_thiết cho người kỹ sư Công_nghệ_thông tin ",
    "timeDate": {
      "$date": "2018-05-31T17:15:45.389+0000"
    }
  },
  {
    "_id": {
      "$oid": "5b102dd71f2b611ae4207828"
    },
    "id": 114,
    "questionMessage": "Học CNTT ra trường làm ở đâu?",
    "answerMessage": "<p>Các công ty phần mềm, các công ty cung cấp giải pháp mạng, các công ty cung cấp giải pháp hệ thống thông tin trong nước cũng như quốc tế, v.v…</p>",
    "questionProcessed": "Học CNTT ra trường làm ở đâu ",
    "answerProcessed": "Các công_ty phần mềm  các công ty cung cấp giải pháp mạng  các công ty cung cấp giải pháp hệ thống thông tin trong nước cũng như quốc_tế  vv …",
    "timeDate": {
      "$date": "2018-05-31T17:16:07.146+0000"
    }
  },
  {
    "_id": {
      "$oid": "5b102ddc1f2b611ae420782a"
    },
    "id": 115,
    "questionMessage": "Học CNTT ra trường làm gì?",
    "answerMessage": "<p>Các công ty phần mềm, các công ty cung cấp giải pháp mạng, các công ty cung cấp giải pháp hệ thống thông tin trong nước cũng như quốc tế, v.v…</p>",
    "questionProcessed": "Học CNTT ra trường làm gì ",
    "answerProcessed": "Các công_ty phần mềm  các công ty cung cấp giải pháp mạng  các công ty cung cấp giải pháp hệ thống thông tin trong nước cũng như quốc_tế  vv …",
    "timeDate": {
      "$date": "2018-05-31T17:16:12.157+0000"
    }
  },
  {
    "_id": {
      "$oid": "5b102de11f2b611ae420782c"
    },
    "id": 116,
    "questionMessage": "Học CNTT có thể làm việc ở đâu sau khi ra trường?",
    "answerMessage": "<p>Các công ty phần mềm, các công ty cung cấp giải pháp mạng, các công ty cung cấp giải pháp hệ thống thông tin trong nước cũng như quốc tế, v.v…</p>",
    "questionProcessed": "Học CNTT có thể làm việc ở đâu sau khi ra trường ",
    "answerProcessed": "Các công_ty phần mềm  các công ty cung cấp giải pháp mạng  các công ty cung cấp giải pháp hệ thống thông tin trong nước cũng như quốc_tế  vv …",
    "timeDate": {
      "$date": "2018-05-31T17:16:17.073+0000"
    }
  },
  {
    "_id": {
      "$oid": "5b102de51f2b611ae420782e"
    },
    "id": 117,
    "questionMessage": "Học CNTT sẽ làm gì?",
    "answerMessage": "<p>Các công ty phần mềm, các công ty cung cấp giải pháp mạng, các công ty cung cấp giải pháp hệ thống thông tin trong nước cũng như quốc tế, v.v…</p>",
    "questionProcessed": "Học CNTT sẽ làm gì ",
    "answerProcessed": "Các công_ty phần mềm  các công ty cung cấp giải pháp mạng  các công ty cung cấp giải pháp hệ thống thông tin trong nước cũng như quốc_tế  vv …",
    "timeDate": {
      "$date": "2018-05-31T17:16:21.465+0000"
    }
  },
  {
    "_id": {
      "$oid": "5b102de91f2b611ae4207830"
    },
    "id": 118,
    "questionMessage": "Ngành CNTT ra trường làm gì?",
    "answerMessage": "<p>Các công ty phần mềm, các công ty cung cấp giải pháp mạng, các công ty cung cấp giải pháp hệ thống thông tin trong nước cũng như quốc tế, v.v…</p>",
    "questionProcessed": "Ngành CNTT ra trường làm gì ",
    "answerProcessed": "Các công_ty phần mềm  các công ty cung cấp giải pháp mạng  các công ty cung cấp giải pháp hệ thống thông tin trong nước cũng như quốc_tế  vv …",
    "timeDate": {
      "$date": "2018-05-31T17:16:25.503+0000"
    }
  },
  {
    "_id": {
      "$oid": "5b102e241f2b611ae4207832"
    },
    "id": 119,
    "questionMessage": "Điểm đầu vào ngành CNTT năm 2017?",
    "answerMessage": "<p>Năm 2017 là 25 điểm</p>",
    "questionProcessed": "Điểm đầu vào ngành CNTT năm 2017 ",
    "answerProcessed": "Năm 2017 là 25 điểm",
    "timeDate": {
      "$date": "2018-05-31T17:17:24.284+0000"
    }
  },
  {
    "_id": {
      "$oid": "5b102e291f2b611ae4207834"
    },
    "id": 120,
    "questionMessage": "Điểm đầu vào ngành CNTT năm 2016-2017?",
    "answerMessage": "<p>Năm 2017 là 25 điểm</p>",
    "questionProcessed": "Điểm đầu vào ngành CNTT năm 20162017 ",
    "answerProcessed": "Năm 2017 là 25 điểm",
    "timeDate": {
      "$date": "2018-05-31T17:17:29.104+0000"
    }
  },
  {
    "_id": {
      "$oid": "5b102e4d1f2b611ae4207836"
    },
    "id": 121,
    "questionMessage": "Điểm đầu vào ngành CNTT năm ngoái?",
    "answerMessage": "<p>Năm 2017 là 25 điểm</p>",
    "questionProcessed": "Điểm đầu vào ngành CNTT năm ngoái ",
    "answerProcessed": "Năm 2017 là 25 điểm",
    "timeDate": {
      "$date": "2018-05-31T17:18:05.616+0000"
    }
  },
  {
    "_id": {
      "$oid": "5b102e521f2b611ae4207838"
    },
    "id": 122,
    "questionMessage": "Điểm đầu vào ngành CNTT năm trước?",
    "answerMessage": "<p>Năm 2017 là 25 điểm</p>",
    "questionProcessed": "Điểm đầu vào ngành CNTT năm trước ",
    "answerProcessed": "Năm 2017 là 25 điểm",
    "timeDate": {
      "$date": "2018-05-31T17:18:10.549+0000"
    }
  },
  {
    "_id": {
      "$oid": "5b102e571f2b611ae420783a"
    },
    "id": 123,
    "questionMessage": "Điểm thi vào ngành CNTT?",
    "answerMessage": "<p>Năm 2017 là 25 điểm</p>",
    "questionProcessed": "Điểm thi vào ngành CNTT ",
    "answerProcessed": "Năm 2017 là 25 điểm",
    "timeDate": {
      "$date": "2018-05-31T17:18:15.926+0000"
    }
  },
  {
    "_id": {
      "$oid": "5b102e5c1f2b611ae420783c"
    },
    "id": 124,
    "questionMessage": "Ngành CNTT đại trà bao nhiêu điểm?",
    "answerMessage": "<p>Năm 2017 là 25 điểm</p>",
    "questionProcessed": "Ngành CNTT đại trà bao nhiêu điểm ",
    "answerProcessed": "Năm 2017 là 25 điểm",
    "timeDate": {
      "$date": "2018-05-31T17:18:20.577+0000"
    }
  },
  {
    "_id": {
      "$oid": "5b102e611f2b611ae420783e"
    },
    "id": 125,
    "questionMessage": "Ngành CNTT năm 2017 hệ đại trà bao nhiêu điểm?",
    "answerMessage": "<p>Năm 2017 là 25 điểm</p>",
    "questionProcessed": "Ngành CNTT năm 2017 hệ đại trà bao nhiêu điểm ",
    "answerProcessed": "Năm 2017 là 25 điểm",
    "timeDate": {
      "$date": "2018-05-31T17:18:25.820+0000"
    }
  },
  {
    "_id": {
      "$oid": "5b102e661f2b611ae4207840"
    },
    "id": 126,
    "questionMessage": "Điểm thi vào ngành CNTT đại trà là bao nhiêu?",
    "answerMessage": "<p>Năm 2017 là 25 điểm</p>",
    "questionProcessed": "Điểm thi vào ngành CNTT đại trà là bao nhiêu ",
    "answerProcessed": "Năm 2017 là 25 điểm",
    "timeDate": {
      "$date": "2018-05-31T17:18:30.614+0000"
    }
  },
  {
    "_id": {
      "$oid": "5b102e6e1f2b611ae4207842"
    },
    "id": 127,
    "questionMessage": "Điểm thi vào ngành CNTT đại trà năm 2017 là bao nhiêu?",
    "answerMessage": "<p>Năm 2017 là 25 điểm</p>",
    "questionProcessed": "Điểm thi vào ngành CNTT đại trà năm 2017 là bao nhiêu ",
    "answerProcessed": "Năm 2017 là 25 điểm",
    "timeDate": {
      "$date": "2018-05-31T17:18:38.458+0000"
    }
  },
  {
    "_id": {
      "$oid": "5b102e731f2b611ae4207844"
    },
    "id": 128,
    "questionMessage": "Điểm đậu ngành CNTT?",
    "answerMessage": "<p>Năm 2017 là 25 điểm</p>",
    "questionProcessed": "Điểm đậu ngành CNTT ",
    "answerProcessed": "Năm 2017 là 25 điểm",
    "timeDate": {
      "$date": "2018-05-31T17:18:43.014+0000"
    }
  },
  {
    "_id": {
      "$oid": "5b102e791f2b611ae4207846"
    },
    "id": 129,
    "questionMessage": "Điểm đậu ngành CNTT năm 2017?",
    "answerMessage": "<p>Năm 2017 là 25 điểm</p>",
    "questionProcessed": "Điểm đậu ngành CNTT năm 2017 ",
    "answerProcessed": "Năm 2017 là 25 điểm",
    "timeDate": {
      "$date": "2018-05-31T17:18:49.739+0000"
    }
  },
  {
    "_id": {
      "$oid": "5b102e7e1f2b611ae4207848"
    },
    "id": 130,
    "questionMessage": "Khối A năm 2017 ngành CNTT bao nhiêu điểm đầu vào?",
    "answerMessage": "<p>Năm 2017 là 25 điểm</p>",
    "questionProcessed": "Khối A năm 2017 ngành CNTT bao nhiêu điểm đầu vào ",
    "answerProcessed": "Năm 2017 là 25 điểm",
    "timeDate": {
      "$date": "2018-05-31T17:18:54.857+0000"
    }
  },
  {
    "_id": {
      "$oid": "5b102e831f2b611ae420784a"
    },
    "id": 131,
    "questionMessage": "Khối A năm 2017 ngành CNTT bao nhiêu điểm đậu?",
    "answerMessage": "<p>Năm 2017 là 25 điểm</p>",
    "questionProcessed": "Khối A năm 2017 ngành CNTT bao nhiêu điểm đậu ",
    "answerProcessed": "Năm 2017 là 25 điểm",
    "timeDate": {
      "$date": "2018-05-31T17:18:59.398+0000"
    }
  },
  {
    "_id": {
      "$oid": "5b102e881f2b611ae420784c"
    },
    "id": 132,
    "questionMessage": "Khối A năm trước ngành CNTT bao nhiêu điểm đầu vào?",
    "answerMessage": "<p>Năm 2017 là 25 điểm</p>",
    "questionProcessed": "Khối A năm trước ngành CNTT bao nhiêu điểm đầu vào ",
    "answerProcessed": "Năm 2017 là 25 điểm",
    "timeDate": {
      "$date": "2018-05-31T17:19:04.451+0000"
    }
  },
  {
    "_id": {
      "$oid": "5b102ea81f2b611ae420784e"
    },
    "id": 133,
    "questionMessage": "Khối A năm trước ngành CNTT bao nhiêu điểm đậu?",
    "answerMessage": "<p>Năm 2017 là 25 điểm</p>",
    "questionProcessed": "Khối A năm trước ngành CNTT bao nhiêu điểm đậu ",
    "answerProcessed": "Năm 2017 là 25 điểm",
    "timeDate": {
      "$date": "2018-05-31T17:19:36.410+0000"
    }
  },
  {
    "_id": {
      "$oid": "5b102ebc1f2b611ae4207850"
    },
    "id": 134,
    "questionMessage": "Mã ngành của ngành CNTT là gì?",
    "answerMessage": "<p>Mã ngành Công nghệ thông tin 7480201</p>",
    "questionProcessed": "Mã_ngành của ngành CNTT là gì ",
    "answerProcessed": "Mã ngành Công_nghệ_thông tin 7480201",
    "timeDate": {
      "$date": "2018-05-31T17:19:56.046+0000"
    }
  },
  {
    "_id": {
      "$oid": "5b102eca1f2b611ae4207852"
    },
    "id": 135,
    "questionMessage": "Ngành CNTT có mã ngành?",
    "answerMessage": "<table border=\"1\" cellpadding=\"0\" cellspacing=\"0\"><tbody><tr><td valign=\"top\" width=\"312\"><p>Mã ngành Công nghệ thông tin 7480201</p></td></tr></tbody></table>",
    "questionProcessed": "Ngành CNTT có mã ngành ",
    "answerProcessed": "Mã ngành Công_nghệ_thông tin 7480201",
    "timeDate": {
      "$date": "2018-05-31T17:20:10.312+0000"
    }
  },
  {
    "_id": {
      "$oid": "5b102ed01f2b611ae4207854"
    },
    "id": 136,
    "questionMessage": "Mã ngành ngành CNTT?",
    "answerMessage": "<table border=\"1\" cellpadding=\"0\" cellspacing=\"0\"><tbody><tr><td valign=\"top\" width=\"312\"><p>Mã ngành Công nghệ thông tin 7480201</p></td></tr></tbody></table>",
    "questionProcessed": "Mã ngành ngành CNTT ",
    "answerProcessed": "Mã ngành Công_nghệ_thông tin 7480201",
    "timeDate": {
      "$date": "2018-05-31T17:20:16.829+0000"
    }
  },
  {
    "_id": {
      "$oid": "5b102ee51f2b611ae4207856"
    },
    "id": 137,
    "questionMessage": "Ghi mã ngành CNTT?",
    "answerMessage": "<table border=\"1\" cellpadding=\"0\" cellspacing=\"0\"><tbody><tr><td valign=\"top\" width=\"312\"><p>Mã ngành Công nghệ thông tin 7480201</p></td></tr></tbody></table>",
    "questionProcessed": "Ghi mã ngành CNTT ",
    "answerProcessed": "Mã ngành Công_nghệ_thông tin 7480201",
    "timeDate": {
      "$date": "2018-05-31T17:20:37.922+0000"
    }
  },
  {
    "_id": {
      "$oid": "5b102f011f2b611ae4207858"
    },
    "id": 138,
    "questionMessage": "Điểm đầu vào ngành CNTT năm 2016?",
    "answerMessage": "<p>Năm 2016 là 22,5 điểm</p>",
    "questionProcessed": "Điểm đầu vào ngành CNTT năm 2016 ",
    "answerProcessed": "Năm 2016 là 225 điểm",
    "timeDate": {
      "$date": "2018-05-31T17:21:05.464+0000"
    }
  },
  {
    "_id": {
      "$oid": "5b102f101f2b611ae420785a"
    },
    "id": 139,
    "questionMessage": "Điểm đầu vào ngành CNTT năm 2015-2016?",
    "answerMessage": "<p>Năm 2016 là 22,5 điểm</p>",
    "questionProcessed": "Điểm đầu vào ngành CNTT năm 20152016 ",
    "answerProcessed": "Năm 2016 là 225 điểm",
    "timeDate": {
      "$date": "2018-05-31T17:21:20.725+0000"
    }
  },
  {
    "_id": {
      "$oid": "5b102f4f1f2b611ae420785c"
    },
    "id": 140,
    "questionMessage": "Điểm thi vào ngành CNTT năm 2016?",
    "answerMessage": "<p>Năm 2016 là 22,5 điểm</p>",
    "questionProcessed": "Điểm thi vào ngành CNTT năm 2016 ",
    "answerProcessed": "Năm 2016 là 225 điểm",
    "timeDate": {
      "$date": "2018-05-31T17:22:23.041+0000"
    }
  },
  {
    "_id": {
      "$oid": "5b102f531f2b611ae420785e"
    },
    "id": 141,
    "questionMessage": "Ngành CNTT đại trà năm 2016 bao nhiêu điểm?",
    "answerMessage": "<p>Năm 2016 là 22,5 điểm</p>",
    "questionProcessed": "Ngành CNTT đại trà năm 2016 bao nhiêu điểm ",
    "answerProcessed": "Năm 2016 là 225 điểm",
    "timeDate": {
      "$date": "2018-05-31T17:22:27.576+0000"
    }
  },
  {
    "_id": {
      "$oid": "5b102f581f2b611ae4207860"
    },
    "id": 142,
    "questionMessage": "Điểm thi vào ngành CNTT đại trà năm 2016 là bao nhiêu?",
    "answerMessage": "<p>Năm 2016 là 22,5 điểm</p>",
    "questionProcessed": "Điểm thi vào ngành CNTT đại trà năm 2016 là bao nhiêu ",
    "answerProcessed": "Năm 2016 là 225 điểm",
    "timeDate": {
      "$date": "2018-05-31T17:22:32.717+0000"
    }
  },
  {
    "_id": {
      "$oid": "5b102f5e1f2b611ae4207862"
    },
    "id": 143,
    "questionMessage": "Điểm đậu ngành CNTT năm 2016?",
    "answerMessage": "<p>Năm 2016 là 22,5 điểm</p>",
    "questionProcessed": "Điểm đậu ngành CNTT năm 2016 ",
    "answerProcessed": "Năm 2016 là 225 điểm",
    "timeDate": {
      "$date": "2018-05-31T17:22:38.019+0000"
    }
  },
  {
    "_id": {
      "$oid": "5b102f621f2b611ae4207864"
    },
    "id": 144,
    "questionMessage": "Khối A năm 2016 ngành CNTT bao nhiêu điểm đầu vào?",
    "answerMessage": "<p>Năm 2016 là 22,5 điểm</p>",
    "questionProcessed": "Khối A năm 2016 ngành CNTT bao nhiêu điểm đầu vào ",
    "answerProcessed": "Năm 2016 là 225 điểm",
    "timeDate": {
      "$date": "2018-05-31T17:22:42.565+0000"
    }
  },
  {
    "_id": {
      "$oid": "5b102f671f2b611ae4207866"
    },
    "id": 145,
    "questionMessage": "Khối A năm 2016 ngành CNTT bao nhiêu điểm đậu?",
    "answerMessage": "<p>Năm 2016 là 22,5 điểm</p>",
    "questionProcessed": "Khối A năm 2016 ngành CNTT bao nhiêu điểm đậu ",
    "answerProcessed": "Năm 2016 là 225 điểm",
    "timeDate": {
      "$date": "2018-05-31T17:22:47.481+0000"
    }
  },
  {
    "_id": {
      "$oid": "5b2b33401f2b61002035ff18"
    },
    "id": 146,
    "questionMessage": "Sư phạm Kỹ thuật?",
    "answerMessage": "<p>SPKT</p>",
    "questionProcessed": "Sư phạm Kỹ_thuật ",
    "answerProcessed": "SPKT",
    "timeDate": {
      "$date": "2018-06-21T05:10:24.452+0000"
    }
  },
  {
    "_id": {
      "$oid": "5b2b33471f2b61002035ff1a"
    },
    "id": 147,
    "questionMessage": "Đại học Sư phạm Kỹ thuật?",
    "answerMessage": "<p>SPKT</p>",
    "questionProcessed": "Đại_học Sư phạm Kỹ_thuật ",
    "answerProcessed": "SPKT",
    "timeDate": {
      "$date": "2018-06-21T05:10:31.634+0000"
    }
  },
  {
    "_id": {
      "$oid": "5b2b334f1f2b61002035ff1c"
    },
    "id": 148,
    "questionMessage": "ĐH Sư phạm Kỹ thuật?",
    "answerMessage": "<p>SPKT</p>",
    "questionProcessed": "ĐH Sư phạm Kỹ_thuật ",
    "answerProcessed": "SPKT",
    "timeDate": {
      "$date": "2018-06-21T05:10:39.395+0000"
    }
  },
  {
    "_id": {
      "$oid": "5b2b33571f2b61002035ff1e"
    },
    "id": 149,
    "questionMessage": "Đại học Sư phạm Kỹ thuật Thành phố Hồ chí Minh?",
    "answerMessage": "<p>SPKT</p>",
    "questionProcessed": "Đại_học Sư phạm Kỹ thuật Thành phố Hồ_chí Minh ",
    "answerProcessed": "SPKT",
    "timeDate": {
      "$date": "2018-06-21T05:10:47.581+0000"
    }
  },
  {
    "_id": {
      "$oid": "5b2b33601f2b61002035ff20"
    },
    "id": 150,
    "questionMessage": "Đại Học Sư phạm Kỹ thuật TPHCM?",
    "answerMessage": "<p>SPKT</p>",
    "questionProcessed": "Đại_Học Sư phạm Kỹ_thuật TPHCM ",
    "answerProcessed": "SPKT",
    "timeDate": {
      "$date": "2018-06-21T05:10:56.306+0000"
    }
  },
  {
    "_id": {
      "$oid": "5b2b33671f2b61002035ff22"
    },
    "id": 151,
    "questionMessage": "ĐH Sư phạm Kỹ thuật TPHCM?",
    "answerMessage": "<p>SPKT</p>",
    "questionProcessed": "ĐH Sư phạm Kỹ_thuật TPHCM ",
    "answerProcessed": "SPKT",
    "timeDate": {
      "$date": "2018-06-21T05:11:03.092+0000"
    }
  },
  {
    "_id": {
      "$oid": "5b2b336d1f2b61002035ff24"
    },
    "id": 152,
    "questionMessage": "SPKT TPHCM?",
    "answerMessage": "<p>SPKT</p>",
    "questionProcessed": "SPKT TPHCM ",
    "answerProcessed": "SPKT",
    "timeDate": {
      "$date": "2018-06-21T05:11:09.037+0000"
    }
  },
  {
    "_id": {
      "$oid": "5b2b33711f2b61002035ff26"
    },
    "id": 153,
    "questionMessage": "ĐH SPKT TPHCM?",
    "answerMessage": "<p>SPKT</p>",
    "questionProcessed": "ĐH SPKT TPHCM ",
    "answerProcessed": "SPKT",
    "timeDate": {
      "$date": "2018-06-21T05:11:13.841+0000"
    }
  },
  {
    "_id": {
      "$oid": "5b2b35ff1f2b61002035ff2a"
    },
    "id": 155,
    "questionMessage": "SPKT nằm ở đâu?",
    "answerMessage": "<p>Số 01 Võ Văn Ngân, Phường Linh Chiểu, Quận Thủ Đức, Thành phố Hồ Chí Minh.</p>",
    "questionProcessed": "SPKT nằm ở đâu ",
    "answerProcessed": "Số 01 Võ_Văn_Ngân  Phường Linh_Chiểu  Quận Thủ_Đức  Thành phố Hồ_Chí_Minh ",
    "timeDate": {
      "$date": "2018-06-21T05:22:07.037+0000"
    }
  },
  {
    "_id": {
      "$oid": "5b2b36041f2b61002035ff2c"
    },
    "id": 156,
    "questionMessage": "Địa chỉ SPKT?",
    "answerMessage": "<p>Số 01 Võ Văn Ngân, Phường Linh Chiểu, Quận Thủ Đức, Thành phố Hồ Chí Minh.</p>",
    "questionProcessed": "Địa chỉ SPKT ",
    "answerProcessed": "Số 01 Võ_Văn_Ngân  Phường Linh_Chiểu  Quận Thủ_Đức  Thành phố Hồ_Chí_Minh ",
    "timeDate": {
      "$date": "2018-06-21T05:22:12.264+0000"
    }
  },
  {
    "_id": {
      "$oid": "5b2b360a1f2b61002035ff2e"
    },
    "id": 157,
    "questionMessage": "Địa chỉ Sư phạm kỹ thuật?",
    "answerMessage": "<p>Số 01 Võ Văn Ngân, Phường Linh Chiểu, Quận Thủ Đức, Thành phố Hồ Chí Minh.</p>",
    "questionProcessed": "Địa chỉ Sư phạm_kỹ thuật ",
    "answerProcessed": "Số 01 Võ_Văn_Ngân  Phường Linh_Chiểu  Quận Thủ_Đức  Thành phố Hồ_Chí_Minh ",
    "timeDate": {
      "$date": "2018-06-21T05:22:18.503+0000"
    }
  },
  {
    "_id": {
      "$oid": "5b2b36171f2b61002035ff30"
    },
    "id": 158,
    "questionMessage": "Sư phạm kỹ thuật ở đâu?",
    "answerMessage": "<p>Số 01 Võ Văn Ngân, Phường Linh Chiểu, Quận Thủ Đức, Thành phố Hồ Chí Minh.</p>",
    "questionProcessed": "Sư phạm_kỹ thuật ở đâu ",
    "answerProcessed": "Số 01 Võ_Văn_Ngân  Phường Linh_Chiểu  Quận Thủ_Đức  Thành phố Hồ_Chí_Minh ",
    "timeDate": {
      "$date": "2018-06-21T05:22:31.807+0000"
    }
  },
  {
    "_id": {
      "$oid": "5b2b361e1f2b61002035ff32"
    },
    "id": 159,
    "questionMessage": "SPKT ở đâu?",
    "answerMessage": "<p>Số 01 Võ Văn Ngân, Phường Linh Chiểu, Quận Thủ Đức, Thành phố Hồ Chí Minh.</p>",
    "questionProcessed": "SPKT ở đâu ",
    "answerProcessed": "Số 01 Võ_Văn_Ngân  Phường Linh_Chiểu  Quận Thủ_Đức  Thành phố Hồ_Chí_Minh ",
    "timeDate": {
      "$date": "2018-06-21T05:22:38.854+0000"
    }
  },
  {
    "_id": {
      "$oid": "5b2b36251f2b61002035ff34"
    },
    "id": 160,
    "questionMessage": "ĐH SPKT ở đâu?",
    "answerMessage": "<p>Số 01 Võ Văn Ngân, Phường Linh Chiểu, Quận Thủ Đức, Thành phố Hồ Chí Minh.</p>",
    "questionProcessed": "ĐH SPKT ở đâu ",
    "answerProcessed": "Số 01 Võ_Văn_Ngân  Phường Linh_Chiểu  Quận Thủ_Đức  Thành phố Hồ_Chí_Minh ",
    "timeDate": {
      "$date": "2018-06-21T05:22:45.080+0000"
    }
  },
  {
    "_id": {
      "$oid": "5b2b362d1f2b61002035ff36"
    },
    "id": 161,
    "questionMessage": "Địa chỉ ĐH SPKT?",
    "answerMessage": "<p>Số 01 Võ Văn Ngân, Phường Linh Chiểu, Quận Thủ Đức, Thành phố Hồ Chí Minh.</p>",
    "questionProcessed": "Địa chỉ ĐH SPKT ",
    "answerProcessed": "Số 01 Võ_Văn_Ngân  Phường Linh_Chiểu  Quận Thủ_Đức  Thành phố Hồ_Chí_Minh ",
    "timeDate": {
      "$date": "2018-06-21T05:22:53.049+0000"
    }
  },
  {
    "_id": {
      "$oid": "5b2b42721f2b6137742b8817"
    },
    "id": 162,
    "questionMessage": "Cơ sở vật chất?",
    "answerMessage": "<p>Gần 200 phòng học lý thuyết, 60 phòng học chuyên dùng 16 phòng học máy tính, 58 phòng thí nghiệm, 98 xưởng thực hành hiện đại.</p>",
    "questionProcessed": "Cơ_sở vật_chất ",
    "answerProcessed": "Gần 200 phòng học lý_thuyết  60 phòng học chuyên dùng 16 phòng học máy tính  58 phòng_thí nghiệm  98 xưởng thực hành hiện đại ",
    "timeDate": {
      "$date": "2018-06-21T06:15:14.553+0000"
    }
  },
  {
    "_id": {
      "$oid": "5b2b42911f2b6137742b8819"
    },
    "id": 163,
    "questionMessage": "Cơ sở vật chất như thế nào?",
    "answerMessage": "<p>Gần 200 phòng học lý thuyết, 60 phòng học chuyên dùng 16 phòng học máy tính, 58 phòng thí nghiệm, 98 xưởng thực hành hiện đại.</p>",
    "questionProcessed": "Cơ_sở vật_chất như_thế nào ",
    "answerProcessed": "Gần 200 phòng học lý_thuyết  60 phòng học chuyên dùng 16 phòng học máy tính  58 phòng_thí nghiệm  98 xưởng thực hành hiện đại ",
    "timeDate": {
      "$date": "2018-06-21T06:15:45.163+0000"
    }
  },
  {
    "_id": {
      "$oid": "5b2b42951f2b6137742b881b"
    },
    "id": 164,
    "questionMessage": "Cơ sở vật chất trường ra sao?",
    "answerMessage": "<p>Gần 200 phòng học lý thuyết, 60 phòng học chuyên dùng 16 phòng học máy tính, 58 phòng thí nghiệm, 98 xưởng thực hành hiện đại.</p>",
    "questionProcessed": "Cơ_sở vật_chất trường ra sao ",
    "answerProcessed": "Gần 200 phòng học lý_thuyết  60 phòng học chuyên dùng 16 phòng học máy tính  58 phòng_thí nghiệm  98 xưởng thực hành hiện đại ",
    "timeDate": {
      "$date": "2018-06-21T06:15:49.534+0000"
    }
  },
  {
    "_id": {
      "$oid": "5b2b42ad1f2b6137742b881d"
    },
    "id": 165,
    "questionMessage": "Cơ sở vật chất trường như thế nào?",
    "answerMessage": "<p>Gần 200 phòng học lý thuyết, 60 phòng học chuyên dùng 16 phòng học máy tính, 58 phòng thí nghiệm, 98 xưởng thực hành hiện đại.</p>",
    "questionProcessed": "Cơ_sở vật_chất trường như_thế nào ",
    "answerProcessed": "Gần 200 phòng học lý_thuyết  60 phòng học chuyên dùng 16 phòng học máy tính  58 phòng_thí nghiệm  98 xưởng thực hành hiện đại ",
    "timeDate": {
      "$date": "2018-06-21T06:16:13.253+0000"
    }
  },
  {
    "_id": {
      "$oid": "5b2b42b31f2b6137742b881f"
    },
    "id": 166,
    "questionMessage": "Cơ sở vật chất trường tốt không?",
    "answerMessage": "<p>Gần 200 phòng học lý thuyết, 60 phòng học chuyên dùng 16 phòng học máy tính, 58 phòng thí nghiệm, 98 xưởng thực hành hiện đại.</p>",
    "questionProcessed": "Cơ_sở vật_chất trường tốt không ",
    "answerProcessed": "Gần 200 phòng học lý_thuyết  60 phòng học chuyên dùng 16 phòng học máy tính  58 phòng_thí nghiệm  98 xưởng thực hành hiện đại ",
    "timeDate": {
      "$date": "2018-06-21T06:16:19.533+0000"
    }
  },
  {
    "_id": {
      "$oid": "5b2b42b71f2b6137742b8821"
    },
    "id": 167,
    "questionMessage": "Cơ sở vật chất tốt không?",
    "answerMessage": "<p>Gần 200 phòng học lý thuyết, 60 phòng học chuyên dùng 16 phòng học máy tính, 58 phòng thí nghiệm, 98 xưởng thực hành hiện đại.</p>",
    "questionProcessed": "Cơ_sở vật_chất tốt không ",
    "answerProcessed": "Gần 200 phòng học lý_thuyết  60 phòng học chuyên dùng 16 phòng học máy tính  58 phòng_thí nghiệm  98 xưởng thực hành hiện đại ",
    "timeDate": {
      "$date": "2018-06-21T06:16:23.813+0000"
    }
  },
  {
    "_id": {
      "$oid": "5b2b444b1f2b6137742b8825"
    },
    "id": 169,
    "questionMessage": "Tổng chỉ tiêu 2018?",
    "answerMessage": "<p>Đại học chính quy: 4.640, trong đó hệ Sư phạm: 300</p>",
    "questionProcessed": "Tổng_chỉ tiêu 2018 ",
    "answerProcessed": "Đại_học chính quy  4640  trong đó hệ Sư phạm  300",
    "timeDate": {
      "$date": "2018-06-21T06:23:07.650+0000"
    }
  },
  {
    "_id": {
      "$oid": "5b2b444b1f2b6137742b8829"
    },
    "id": 171,
    "questionMessage": "Chỉ tiêu 2018?",
    "answerMessage": "<p>Đại học chính quy: 4.640, trong đó hệ Sư phạm: 300</p>",
    "questionProcessed": "Chỉ tiêu 2018 ",
    "answerProcessed": "Đại_học chính quy  4640  trong đó hệ Sư phạm  300",
    "timeDate": {
      "$date": "2018-06-21T06:23:07.947+0000"
    }
  },
  {
    "_id": {
      "$oid": "5b2b44581f2b6137742b882b"
    },
    "id": 172,
    "questionMessage": "Chỉ tiêu tuyển 2018?",
    "answerMessage": "<p>Đại học chính quy: 4.640, trong đó hệ Sư phạm: 300</p>",
    "questionProcessed": "Chỉ tiêu tuyển 2018 ",
    "answerProcessed": "Đại_học chính quy  4640  trong đó hệ Sư phạm  300",
    "timeDate": {
      "$date": "2018-06-21T06:23:20.544+0000"
    }
  },
  {
    "_id": {
      "$oid": "5b2b44891f2b6137742b882d"
    },
    "id": 173,
    "questionMessage": "Tổng chỉ tiêu?",
    "answerMessage": "<p>Đại học chính quy: 4.640, trong đó hệ Sư phạm: 300</p>",
    "questionProcessed": "Tổng_chỉ tiêu ",
    "answerProcessed": "Đại_học chính quy  4640  trong đó hệ Sư phạm  300",
    "timeDate": {
      "$date": "2018-06-21T06:24:09.789+0000"
    }
  },
  {
    "_id": {
      "$oid": "5b2b45ca1f2b6137742b882f"
    },
    "id": 174,
    "questionMessage": "Hệ đại trà?",
    "answerMessage": "<p>Có 35 ngành.</p>",
    "questionProcessed": "Hệ đại trà ",
    "answerProcessed": "Có 35 ngành ",
    "timeDate": {
      "$date": "2018-06-21T06:29:30.103+0000"
    }
  },
  {
    "_id": {
      "$oid": "5b2b45cf1f2b6137742b8831"
    },
    "id": 175,
    "questionMessage": "Số ngành hệ đại trà?",
    "answerMessage": "<p>Có 35 ngành.</p>",
    "questionProcessed": "Số ngành hệ đại trà ",
    "answerProcessed": "Có 35 ngành ",
    "timeDate": {
      "$date": "2018-06-21T06:29:35.041+0000"
    }
  },
  {
    "_id": {
      "$oid": "5b2b45eb1f2b6137742b8833"
    },
    "id": 176,
    "questionMessage": "Có tất cả bao nhiêu ngành hệ đại trà?",
    "answerMessage": "<p>Có 35 ngành.</p>",
    "questionProcessed": "Có tất cả bao nhiêu ngành hệ đại trà ",
    "answerProcessed": "Có 35 ngành ",
    "timeDate": {
      "$date": "2018-06-21T06:30:02.994+0000"
    }
  },
  {
    "_id": {
      "$oid": "5b2b45f01f2b6137742b8835"
    },
    "id": 177,
    "questionMessage": "Hệ đại trà SPKT?",
    "answerMessage": "<p>Có 35 ngành.</p>",
    "questionProcessed": "Hệ đại trà SPKT ",
    "answerProcessed": "Có 35 ngành ",
    "timeDate": {
      "$date": "2018-06-21T06:30:08.008+0000"
    }
  },
  {
    "_id": {
      "$oid": "5b2b45f41f2b6137742b8837"
    },
    "id": 178,
    "questionMessage": "Hệ đại trà như thế nào?",
    "answerMessage": "<p>Có 35 ngành.</p>",
    "questionProcessed": "Hệ đại trà như_thế nào ",
    "answerProcessed": "Có 35 ngành ",
    "timeDate": {
      "$date": "2018-06-21T06:30:12.957+0000"
    }
  },
  {
    "_id": {
      "$oid": "5b2b467c1f2b6137742b8839"
    },
    "id": 179,
    "questionMessage": "Hệ sư phạm?",
    "answerMessage": "<p>Có 14 ngành.</p>",
    "questionProcessed": "Hệ sư phạm ",
    "answerProcessed": "Có 14 ngành ",
    "timeDate": {
      "$date": "2018-06-21T06:32:28.563+0000"
    }
  },
  {
    "_id": {
      "$oid": "5b2b46811f2b6137742b883b"
    },
    "id": 180,
    "questionMessage": "Số ngành hệ sư phạm?",
    "answerMessage": "<p>Có 14 ngành.</p>",
    "questionProcessed": "Số ngành hệ sư phạm ",
    "answerProcessed": "Có 14 ngành ",
    "timeDate": {
      "$date": "2018-06-21T06:32:33.364+0000"
    }
  },
  {
    "_id": {
      "$oid": "5b2b46871f2b6137742b883d"
    },
    "id": 181,
    "questionMessage": "Có tất cả bao nhiêu ngành hệ sư phạm?",
    "answerMessage": "<p>Có 14 ngành.</p>",
    "questionProcessed": "Có tất cả bao nhiêu ngành hệ sư phạm ",
    "answerProcessed": "Có 14 ngành ",
    "timeDate": {
      "$date": "2018-06-21T06:32:39.160+0000"
    }
  },
  {
    "_id": {
      "$oid": "5b2b468b1f2b6137742b883f"
    },
    "id": 182,
    "questionMessage": "Hệ sư phạm SPKT?",
    "answerMessage": "<p>Có 14 ngành.</p>",
    "questionProcessed": "Hệ sư phạm SPKT ",
    "answerProcessed": "Có 14 ngành ",
    "timeDate": {
      "$date": "2018-06-21T06:32:43.054+0000"
    }
  },
  {
    "_id": {
      "$oid": "5b2b468f1f2b6137742b8841"
    },
    "id": 183,
    "questionMessage": "Hệ sư phạm như thế nào?",
    "answerMessage": "<p>Có 14 ngành.</p>",
    "questionProcessed": "Hệ sư phạm như_thế nào ",
    "answerProcessed": "Có 14 ngành ",
    "timeDate": {
      "$date": "2018-06-21T06:32:47.135+0000"
    }
  },
  {
    "_id": {
      "$oid": "5b2b78d11f2b61007459af96"
    },
    "id": 184,
    "questionMessage": "Số khoa?",
    "answerMessage": "<p>Có 13 khoa và 1 viện.</p>",
    "questionProcessed": "Số khoa ",
    "answerProcessed": "Có 13 khoa và 1 viện ",
    "timeDate": {
      "$date": "2018-06-21T10:07:13.158+0000"
    }
  },
  {
    "_id": {
      "$oid": "5b2b78df1f2b61007459af98"
    },
    "id": 185,
    "questionMessage": "Bao nhiêu khoa?",
    "answerMessage": "<p>Có 13 khoa và 1 viện.</p>",
    "questionProcessed": "Bao_nhiêu khoa ",
    "answerProcessed": "Có 13 khoa và 1 viện ",
    "timeDate": {
      "$date": "2018-06-21T10:07:27.171+0000"
    }
  },
  {
    "_id": {
      "$oid": "5b2b78e41f2b61007459af9a"
    },
    "id": 186,
    "questionMessage": "SPKT bao nhiêu khoa?",
    "answerMessage": "<p>Có 13 khoa và 1 viện.</p>",
    "questionProcessed": "SPKT bao nhiêu khoa ",
    "answerProcessed": "Có 13 khoa và 1 viện ",
    "timeDate": {
      "$date": "2018-06-21T10:07:32.109+0000"
    }
  },
  {
    "_id": {
      "$oid": "5b2b78f31f2b61007459af9c"
    },
    "id": 187,
    "questionMessage": "ĐH SPKT bao nhiêu khoa?",
    "answerMessage": "<p>Có 13 khoa và 1 viện.</p>",
    "questionProcessed": "ĐH SPKT bao nhiêu khoa ",
    "answerProcessed": "Có 13 khoa và 1 viện ",
    "timeDate": {
      "$date": "2018-06-21T10:07:47.609+0000"
    }
  },
  {
    "_id": {
      "$oid": "5b2b78fb1f2b61007459af9e"
    },
    "id": 188,
    "questionMessage": "Đào tạo bao nhiêu khoa?",
    "answerMessage": "<p>Có 13 khoa và 1 viện.</p>",
    "questionProcessed": "Đào tạo bao nhiêu khoa ",
    "answerProcessed": "Có 13 khoa và 1 viện ",
    "timeDate": {
      "$date": "2018-06-21T10:07:55.437+0000"
    }
  },
  {
    "_id": {
      "$oid": "5b2b79051f2b61007459afa0"
    },
    "id": 189,
    "questionMessage": "Trường đào tạo bao nhiêu khoa?",
    "answerMessage": "<p>Có 13 khoa và 1 viện.</p>",
    "questionProcessed": "Trường đào tạo bao nhiêu khoa ",
    "answerProcessed": "Có 13 khoa và 1 viện ",
    "timeDate": {
      "$date": "2018-06-21T10:08:05.226+0000"
    }
  },
  {
    "_id": {
      "$oid": "5b2b79491f2b61007459afa2"
    },
    "id": 190,
    "questionMessage": "Cơ hội việc làm?",
    "answerMessage": "<p>hơn 95% có việc làm.</p>",
    "questionProcessed": "Cơ_hội việc làm ",
    "answerProcessed": "hơn 95 % có việc làm ",
    "timeDate": {
      "$date": "2018-06-21T10:09:13.660+0000"
    }
  },
  {
    "_id": {
      "$oid": "5b2b795b1f2b61007459afa4"
    },
    "id": 191,
    "questionMessage": "Học xong có việc làm không?",
    "answerMessage": "<p>hơn 95% có việc làm.</p>",
    "questionProcessed": "Học xong có việc làm không ",
    "answerProcessed": "hơn 95 % có việc làm ",
    "timeDate": {
      "$date": "2018-06-21T10:09:31.766+0000"
    }
  },
  {
    "_id": {
      "$oid": "5b2b79651f2b61007459afa6"
    },
    "id": 192,
    "questionMessage": "Việc làm sau khi tốt nghiệp?",
    "answerMessage": "<p>hơn 95% có việc làm.</p>",
    "questionProcessed": "Việc làm sau khi tốt nghiệp ",
    "answerProcessed": "hơn 95 % có việc làm ",
    "timeDate": {
      "$date": "2018-06-21T10:09:41.765+0000"
    }
  },
  {
    "_id": {
      "$oid": "5b2b79801f2b61007459afa8"
    },
    "id": 193,
    "questionMessage": "Tốt nghiệp xong có việc làm không?",
    "answerMessage": "<p>hơn 95% có việc làm.</p>",
    "questionProcessed": "Tốt_nghiệp xong có việc làm không ",
    "answerProcessed": "hơn 95 % có việc làm ",
    "timeDate": {
      "$date": "2018-06-21T10:10:07.990+0000"
    }
  },
  {
    "_id": {
      "$oid": "5b2b79911f2b61007459afaa"
    },
    "id": 194,
    "questionMessage": "Cơ hội nghề nghiệp?",
    "answerMessage": "<p>hơn 95% có việc làm.</p>",
    "questionProcessed": "Cơ_hội nghề nghiệp ",
    "answerProcessed": "hơn 95 % có việc làm ",
    "timeDate": {
      "$date": "2018-06-21T10:10:25.577+0000"
    }
  },
  {
    "_id": {
      "$oid": "5b2b799c1f2b61007459afac"
    },
    "id": 195,
    "questionMessage": "Cơ hội nghề nghiệp sau khi học xong?",
    "answerMessage": "<p>hơn 95% có việc làm.</p>",
    "questionProcessed": "Cơ_hội nghề nghiệp sau khi học xong ",
    "answerProcessed": "hơn 95 % có việc làm ",
    "timeDate": {
      "$date": "2018-06-21T10:10:36.581+0000"
    }
  },
  {
    "_id": {
      "$oid": "5b2b79a61f2b61007459afae"
    },
    "id": 196,
    "questionMessage": "Cơ hội nghề nghiệp tốt không?",
    "answerMessage": "<p>hơn 95% có việc làm.</p>",
    "questionProcessed": "Cơ_hội nghề nghiệp tốt không ",
    "answerProcessed": "hơn 95 % có việc làm ",
    "timeDate": {
      "$date": "2018-06-21T10:10:46.735+0000"
    }
  },
  {
    "_id": {
      "$oid": "5b2b79b21f2b61007459afb0"
    },
    "id": 197,
    "questionMessage": "Cơ hội nghề nghiệp như thế nào?",
    "answerMessage": "<p>hơn 95% có việc làm.</p>",
    "questionProcessed": "Cơ_hội nghề nghiệp như_thế nào ",
    "answerProcessed": "hơn 95 % có việc làm ",
    "timeDate": {
      "$date": "2018-06-21T10:10:58.915+0000"
    }
  },
  {
    "_id": {
      "$oid": "5b2b7a0d1f2b61007459afb2"
    },
    "id": 198,
    "questionMessage": "Có bao nhiêu chuyên ngành khoa công nghệ thông tin?",
    "answerMessage": "<p>có 3 chuyên ngành : Công nghệ phần mềm, Hệ thống thông tin, Mạng máy tính.</p>",
    "questionProcessed": "Có bao nhiêu chuyên ngành khoa công nghệ_thông tin ",
    "answerProcessed": "có 3 chuyên ngành  Công_nghệ phần mềm  Hệ thống thông tin  Mạng_máy tính ",
    "timeDate": {
      "$date": "2018-06-21T10:12:29.539+0000"
    }
  },
  {
    "_id": {
      "$oid": "5b2b7a1d1f2b61007459afb4"
    },
    "id": 199,
    "questionMessage": "Chuyên ngành khoa công nghệ thông tin?",
    "answerMessage": "<p>có 3 chuyên ngành : Công nghệ phần mềm, Hệ thống thông tin, Mạng máy tính.</p>",
    "questionProcessed": "Chuyên ngành khoa công nghệ_thông tin ",
    "answerProcessed": "có 3 chuyên ngành  Công_nghệ phần mềm  Hệ thống thông tin  Mạng_máy tính ",
    "timeDate": {
      "$date": "2018-06-21T10:12:45.273+0000"
    }
  },
  {
    "_id": {
      "$oid": "5b2b7a511f2b61007459afb6"
    },
    "id": 200,
    "questionMessage": "Kỹ năng học được?",
    "answerMessage": "<p>Có kiến thức chuyên môn vững chắc. Có khả năng phân tích, đề xuất và hiện thực các giải pháp để giải quyết các vấn đề.</p>",
    "questionProcessed": "Kỹ_năng học được ",
    "answerProcessed": "Có kiến thức_chuyên môn vững chắc  Có khả_năng phân_tích  đề xuất và hiện thực các giải pháp để giải quyết các vấn đề ",
    "timeDate": {
      "$date": "2018-06-21T10:13:37.472+0000"
    }
  },
  {
    "_id": {
      "$oid": "5b2b7a5f1f2b61007459afb8"
    },
    "id": 201,
    "questionMessage": "Kỹ năng nhận được?",
    "answerMessage": "<p>Có kiến thức chuyên môn vững chắc. Có khả năng phân tích, đề xuất và hiện thực các giải pháp để giải quyết các vấn đề.</p>",
    "questionProcessed": "Kỹ_năng nhận được ",
    "answerProcessed": "Có kiến thức_chuyên môn vững chắc  Có khả_năng phân_tích  đề xuất và hiện thực các giải pháp để giải quyết các vấn đề ",
    "timeDate": {
      "$date": "2018-06-21T10:13:51.847+0000"
    }
  },
  {
    "_id": {
      "$oid": "5b2b7a6b1f2b61007459afba"
    },
    "id": 202,
    "questionMessage": "Kỹ năng đạt được?",
    "answerMessage": "<p>Có kiến thức chuyên môn vững chắc. Có khả năng phân tích, đề xuất và hiện thực các giải pháp để giải quyết các vấn đề.</p>",
    "questionProcessed": "Kỹ_năng đạt được ",
    "answerProcessed": "Có kiến thức_chuyên môn vững chắc  Có khả_năng phân_tích  đề xuất và hiện thực các giải pháp để giải quyết các vấn đề ",
    "timeDate": {
      "$date": "2018-06-21T10:14:03.367+0000"
    }
  },
  {
    "_id": {
      "$oid": "5b2b7a741f2b61007459afbc"
    },
    "id": 203,
    "questionMessage": "Những kỹ năng có được khi học Công nghệ thông tin?",
    "answerMessage": "<p>Có kiến thức chuyên môn vững chắc. Có khả năng phân tích, đề xuất và hiện thực các giải pháp để giải quyết các vấn đề.</p>",
    "questionProcessed": "Những kỹ năng có được khi học Công_nghệ_thông tin ",
    "answerProcessed": "Có kiến thức_chuyên môn vững chắc  Có khả_năng phân_tích  đề xuất và hiện thực các giải pháp để giải quyết các vấn đề ",
    "timeDate": {
      "$date": "2018-06-21T10:14:12.081+0000"
    }
  },
  {
    "_id": {
      "$oid": "5b2b7a821f2b61007459afbe"
    },
    "id": 204,
    "questionMessage": "Học Công nghệ thông tin sẽ có kỹ năng gì?",
    "answerMessage": "<p>Có kiến thức chuyên môn vững chắc. Có khả năng phân tích, đề xuất và hiện thực các giải pháp để giải quyết các vấn đề.</p>",
    "questionProcessed": "Học Công_nghệ_thông tin sẽ có kỹ năng gì ",
    "answerProcessed": "Có kiến thức_chuyên môn vững chắc  Có khả_năng phân_tích  đề xuất và hiện thực các giải pháp để giải quyết các vấn đề ",
    "timeDate": {
      "$date": "2018-06-21T10:14:26.883+0000"
    }
  },
  {
    "_id": {
      "$oid": "5b2b7a8c1f2b61007459afc0"
    },
    "id": 205,
    "questionMessage": "Học Công nghệ thông tin sẽ được những gì?",
    "answerMessage": "<p>Có kiến thức chuyên môn vững chắc. Có khả năng phân tích, đề xuất và hiện thực các giải pháp để giải quyết các vấn đề.</p>",
    "questionProcessed": "Học Công_nghệ_thông tin sẽ được những gì ",
    "answerProcessed": "Có kiến thức_chuyên môn vững chắc  Có khả_năng phân_tích  đề xuất và hiện thực các giải pháp để giải quyết các vấn đề ",
    "timeDate": {
      "$date": "2018-06-21T10:14:36.943+0000"
    }
  },
  {
    "_id": {
      "$oid": "5b2b7b211f2b61007459afc2"
    },
    "id": 206,
    "questionMessage": "Môn học sẽ được học?",
    "answerMessage": "<p>Các môn tin học cơ sở và các kiến thức chuyên sâu khác cần thiết cho người kỹ sư công nghệ thông tin.</p>",
    "questionProcessed": "Môn học sẽ được học ",
    "answerProcessed": "Các môn tin học cơ_sở và các kiến thức chuyên sâu khác cần_thiết cho người kỹ sư công nghệ_thông tin ",
    "timeDate": {
      "$date": "2018-06-21T10:17:05.738+0000"
    }
  },
  {
    "_id": {
      "$oid": "5b2b7b421f2b61007459afc8"
    },
    "id": 209,
    "questionMessage": "Học ngành này sẽ học những môn nào?",
    "answerMessage": "<p>Các môn tin học cơ sở và các kiến thức chuyên sâu khác cần thiết cho người kỹ sư công nghệ thông tin.</p>",
    "questionProcessed": "Học ngành này sẽ học những môn nào ",
    "answerProcessed": "Các môn tin học cơ_sở và các kiến thức chuyên sâu khác cần_thiết cho người kỹ sư công nghệ_thông tin ",
    "timeDate": {
      "$date": "2018-06-21T10:17:38.335+0000"
    }
  },
  {
    "_id": {
      "$oid": "5b2b7b4d1f2b61007459afca"
    },
    "id": 210,
    "questionMessage": "Ngành này học những môn nào?",
    "answerMessage": "<p>Các môn tin học cơ sở và các kiến thức chuyên sâu khác cần thiết cho người kỹ sư công nghệ thông tin.</p>",
    "questionProcessed": "Ngành này học những môn nào ",
    "answerProcessed": "Các môn tin học cơ_sở và các kiến thức chuyên sâu khác cần_thiết cho người kỹ sư công nghệ_thông tin ",
    "timeDate": {
      "$date": "2018-06-21T10:17:49.011+0000"
    }
  },
  {
    "_id": {
      "$oid": "5b2b7b691f2b61007459afce"
    },
    "id": 212,
    "questionMessage": "Công nghệ thông tin có môn nào?",
    "answerMessage": "<p>Các môn tin học cơ sở và các kiến thức chuyên sâu khác cần thiết cho người kỹ sư công nghệ thông tin.</p>",
    "questionProcessed": "Công_nghệ_thông tin có môn nào ",
    "answerProcessed": "Các môn tin học cơ_sở và các kiến thức chuyên sâu khác cần_thiết cho người kỹ sư công nghệ_thông tin ",
    "timeDate": {
      "$date": "2018-06-21T10:18:17.960+0000"
    }
  },
  {
    "_id": {
      "$oid": "5b2b7b721f2b61007459afd0"
    },
    "id": 213,
    "questionMessage": "Công nghệ thông tin có môn học nào?",
    "answerMessage": "<p>Các môn tin học cơ sở và các kiến thức chuyên sâu khác cần thiết cho người kỹ sư công nghệ thông tin.</p>",
    "questionProcessed": "Công_nghệ_thông tin có môn học nào ",
    "answerProcessed": "Các môn tin học cơ_sở và các kiến thức chuyên sâu khác cần_thiết cho người kỹ sư công nghệ_thông tin ",
    "timeDate": {
      "$date": "2018-06-21T10:18:26.936+0000"
    }
  },
  {
    "_id": {
      "$oid": "5b2b7b871f2b61007459afd2"
    },
    "id": 214,
    "questionMessage": "Chương trình đào tạo ngành Công nghệ thông tin?",
    "answerMessage": "<p>Các môn tin học cơ sở và các kiến thức chuyên sâu khác cần thiết cho người kỹ sư công nghệ thông tin.</p>",
    "questionProcessed": "Chương trình đào tạo ngành Công_nghệ_thông tin ",
    "answerProcessed": "Các môn tin học cơ_sở và các kiến thức chuyên sâu khác cần_thiết cho người kỹ sư công nghệ_thông tin ",
    "timeDate": {
      "$date": "2018-06-21T10:18:47.575+0000"
    }
  },
  {
    "_id": {
      "$oid": "5b2b7bbd1f2b61007459afd4"
    },
    "id": 215,
    "questionMessage": "Học Công nghệ thông tin đi làm ở đâu?",
    "answerMessage": "<p>Các công ty phần mềm, các công ty cung cấp giải pháp mạng, các công ty cung cấp giải pháp hệ thống thông tin trong nước cũng như quốc tế, v.v…</p>",
    "questionProcessed": "Học Công_nghệ_thông tin đi làm ở đâu ",
    "answerProcessed": "Các công_ty phần mềm  các công ty cung cấp giải pháp mạng  các công ty cung cấp giải pháp hệ thống thông tin trong nước cũng như quốc_tế  vv …",
    "timeDate": {
      "$date": "2018-06-21T10:19:41.572+0000"
    }
  },
  {
    "_id": {
      "$oid": "5b2b7bca1f2b61007459afd6"
    },
    "id": 216,
    "questionMessage": "Học Công nghệ thông tin sẽ làm ở đâu?",
    "answerMessage": "<p>Các công ty phần mềm, các công ty cung cấp giải pháp mạng, các công ty cung cấp giải pháp hệ thống thông tin trong nước cũng như quốc tế, v.v…</p>",
    "questionProcessed": "Học Công_nghệ_thông tin sẽ làm ở đâu ",
    "answerProcessed": "Các công_ty phần mềm  các công ty cung cấp giải pháp mạng  các công ty cung cấp giải pháp hệ thống thông tin trong nước cũng như quốc_tế  vv …",
    "timeDate": {
      "$date": "2018-06-21T10:19:54.086+0000"
    }
  },
  {
    "_id": {
      "$oid": "5b2b7bd41f2b61007459afd8"
    },
    "id": 217,
    "questionMessage": "Học Công nghệ thông tin xin việc làm ở đâu?",
    "answerMessage": "<p>Các công ty phần mềm, các công ty cung cấp giải pháp mạng, các công ty cung cấp giải pháp hệ thống thông tin trong nước cũng như quốc tế, v.v…</p>",
    "questionProcessed": "Học Công_nghệ_thông tin xin việc làm ở đâu ",
    "answerProcessed": "Các công_ty phần mềm  các công ty cung cấp giải pháp mạng  các công ty cung cấp giải pháp hệ thống thông tin trong nước cũng như quốc_tế  vv …",
    "timeDate": {
      "$date": "2018-06-21T10:20:04.253+0000"
    }
  },
  {
    "_id": {
      "$oid": "5b2b7bdd1f2b61007459afda"
    },
    "id": 218,
    "questionMessage": "Học Công nghệ thông tin xin việc ở đâu?",
    "answerMessage": "<p>Các công ty phần mềm, các công ty cung cấp giải pháp mạng, các công ty cung cấp giải pháp hệ thống thông tin trong nước cũng như quốc tế, v.v…</p>",
    "questionProcessed": "Học Công_nghệ_thông tin xin việc ở đâu ",
    "answerProcessed": "Các công_ty phần mềm  các công ty cung cấp giải pháp mạng  các công ty cung cấp giải pháp hệ thống thông tin trong nước cũng như quốc_tế  vv …",
    "timeDate": {
      "$date": "2018-06-21T10:20:13.762+0000"
    }
  }
]
